%!PS-Adobe-2.0 EPSF-2.0
%%BoundingBox:  0 0 567 203
%%Title: plots/HoughTransformPlots2.eps: can2
%%Creator: ROOT Version 6.22/08
%%CreationDate: Tue Apr 27 00:04:51 2021
%%DocumentNeededResources: ProcSet (FontSetInit)
%%EndComments
%%BeginProlog
80 dict begin
/s {stroke} def /l {lineto} def /m {moveto} def /t {translate} def
/r {rotate} def /rl {roll}  def /R {repeat} def
/d {rlineto} def /rm {rmoveto} def /gr {grestore} def /f {eofill} def
/c {setrgbcolor} def /black {0 setgray} def /sd {setdash} def
/cl {closepath} def /sf {scalefont setfont} def /lw {setlinewidth} def
/box {m dup 0 exch d exch 0 d 0 exch neg d cl} def
/NC{systemdict begin initclip end}def/C{NC box clip newpath}def
/bl {box s} def /bf {gsave box gsave f grestore 1 lw [] 0 sd s grestore} def /Y { 0 exch d} def /X { 0 d} def 
/K {{pop pop 0 moveto} exch kshow} bind def
/ita {/ang 15 def gsave [1 0 ang dup sin exch cos div 1 0 0] concat} def 
/mp {newpath /y exch def /x exch def} def
/side {[w .77 mul w .23 mul] .385 w mul sd w 0 l currentpoint t -144 r} def
/mr {mp x y w2 0 360 arc} def /m24 {mr s} def /m20 {mr f} def
/mb {mp x y w2 add m w2 neg 0 d 0 w neg d w 0 d 0 w d cl} def
/mt {mp x y w2 add m w2 neg w neg d w 0 d cl} def
/w4 {w 4 div} def
/w6 {w 6 div} def
/w8 {w 8 div} def
/m21 {mb f} def /m25 {mb s} def /m22 {mt f} def /m26{mt s} def
/m23 {mp x y w2 sub m w2 w d w neg 0 d cl f} def
/m27 {mp x y w2 add m w3 neg w2 neg d w3 w2 neg d w3 w2 d cl s} def
/m28 {mp x w2 sub y w2 sub w3 add m w3 0 d  0 w3 neg d w3 0 d 0 w3 d w3 0 d  0 w3 d w3 neg 0 d 0 w3 d w3 neg 0 d 0 w3 neg d w3 neg 0 d cl s } def
/m29 {mp gsave x w2 sub y w2 add w3 sub m currentpoint t 4 {side} repeat cl fill gr} def
/m30 {mp gsave x w2 sub y w2 add w3 sub m currentpoint t 4 {side} repeat cl s gr} def
/m31 {mp x y w2 sub m 0 w d x w2 sub y m w 0 d x w2 .707 mul sub y w2 .707 mul add m w 1.44 div w 1.44 div neg d x w2 .707 mul sub y w2 .707 mul sub m w 1.44 div w 1.44 div d s} def
/m32 {mp x y w2 sub m w2 w d w neg 0 d cl s} def
/m33 {mp x y w2 add m w3 neg w2 neg d w3 w2 neg d w3 w2 d cl f} def
/m34 {mp x w2 sub y w2 sub w3 add m w3 0 d  0 w3 neg d w3 0 d 0 w3 d w3 0 d  0 w3 d w3 neg 0 d 0 w3 d w3 neg 0 d 0 w3 neg d w3 neg 0 d cl f } def
/m35 {mp x y w2 add m w2 neg w2 neg d w2 w2 neg d w2 w2 d w2 neg w2 d x y w2 sub m 0 w d x w2 sub y m w 0 d s} def
/m36 {mb x w2 sub y w2 add m w w neg d x w2 sub y w2 sub m w w d s} def
/m37 {mp x y m w4 neg w2 d w4 neg w2 neg d w2 0 d  w4 neg w2 neg d w2 0 d w4 neg w2 d w2 0 d w4 neg w2 d w4 neg w2 neg d cl s} def
/m38 {mp x w4 sub y w2 add m w4 neg w4 neg d 0 w2 neg d w4 w4 neg d w2 0 d w4 w4 d 0 w2 d w4 neg w4 d w2 neg 0 d x y w2 sub m 0 w d x w2 sub y m w 0 d cl s} def
/m39 {mp x y m w4 neg w2 d w4 neg w2 neg d w2 0 d  w4 neg w2 neg d w2 0 d w4 neg w2 d w2 0 d w4 neg w2 d w4 neg w2 neg d cl f} def
/m40 {mp x y m w4 w2 d w4 w4 neg d w2 neg w4 neg d w2 w4 neg d w4 neg w4 neg d w4 neg w2 d w4 neg w2 neg d w4 neg w4 d w2 w4 d w2 neg w4 d w4 w4 d w4 w2 neg d cl s} def
/m41 {mp x y m w4 w2 d w4 w4 neg d w2 neg w4 neg d w2 w4 neg d w4 neg w4 neg d w4 neg w2 d w4 neg w2 neg d w4 neg w4 d w2 w4 d w2 neg w4 d w4 w4 d w4 w2 neg d cl f} def
/m42 {mp x y w2 add m w8 neg w2 -3 4 div mul d w2 -3 4 div mul w8 neg d w2 3 4 div mul w8 neg d w8 w2 -3 4 div mul d w8 w2 3 4 div mul d w2 3 4 div mul w8 d w2 -3 4 div mul w8 d w8 neg w2 3 4 div mul d cl s} def
/m43 {mp x y w2 add m w8 neg w2 -3 4 div mul d w2 -3 4 div mul w8 neg d w2 3 4 div mul w8 neg d w8 w2 -3 4 div mul d w8 w2 3 4 div mul d w2 3 4 div mul w8 d w2 -3 4 div mul w8 d w8 neg w2 3 4 div mul d cl f} def
/m44 {mp x y m w6 neg w2 d w2 2 3 div mul 0 d w6 neg w2 neg d w2 w6 d 0 w2 -2 3 div mul d w2 neg w6 d w6 w2 neg d w2 -2 3 div mul 0 d w6 w2 d w2 neg w6 neg d 0 w2 2 3 div mul d w2 w6 neg d cl s} def
/m45 {mp x y m w6 neg w2 d w2 2 3 div mul 0 d w6 neg w2 neg d w2 w6 d 0 w2 -2 3 div mul d w2 neg w6 d w6 w2 neg d w2 -2 3 div mul 0 d w6 w2 d w2 neg w6 neg d 0 w2 2 3 div mul d w2 w6 neg d cl f} def
/m46 {mp x y w4 add m w4 neg w4 d w4 neg w4 neg d  w4 w4 neg d w4 neg w4 neg d w4 w4 neg d w4 w4 d w4 w4 neg d w4 w4 d w4 neg w4 d w4 w4 d w4 neg w4 d w4 neg w4 neg d cl s} def
/m47 {mp x y w4 add m w4 neg w4 d w4 neg w4 neg d w4 w4 neg d w4 neg w4 neg d  w4 w4 neg d w4 w4 d w4 w4 neg d w4 w4 d w4 neg w4 d w4 w4 d w4 neg w4 d w4 neg w4 neg d cl f} def
/m48 {mp x y w4 add m w4 neg w4 d w4 neg w4 neg d w4 w4 neg d  w4 neg w4 neg d w4 w4 neg d w4 w4 d w4 w4 neg d w4 w4 d w4 neg w4 d w4 w4 d w4 neg w4 d w4 neg w4 neg d  w4 w4 neg d w4 neg w4 neg d w4 neg w4 d w4 w4 d cl f} def
/m49 {mp x w2 sub w3 add y w2 sub w3 add m  0 w3 neg d w3 0 d 0 w3 d w3 0 d 0 w3 d w3 neg 0 d 0 w3 d w3 neg 0 d 0 w3 neg d w3 neg 0 d 0 w3 neg d w3 0 d 0 w3 d w3 0 d 0 w3 neg d w3 neg 0 d cl f } def
/m2 {mp x y w2 sub m 0 w d x w2 sub y m w 0 d s} def
/m5 {mp x w2 .707 mul sub y w2 .707 mul sub m w 1.44 div w 1.44 div d x w2 .707 mul sub y w2 .707 mul add m w 1.44 div w 1.44 div neg d s} def
%%IncludeResource: ProcSet (FontSetInit)
%%IncludeResource: font Times-Roman
%%IncludeResource: font Times-Italic
%%IncludeResource: font Times-Bold
%%IncludeResource: font Times-BoldItalic
%%IncludeResource: font Helvetica
%%IncludeResource: font Helvetica-Oblique
%%IncludeResource: font Helvetica-Bold
%%IncludeResource: font Helvetica-BoldOblique
%%IncludeResource: font Courier
%%IncludeResource: font Courier-Oblique
%%IncludeResource: font Courier-Bold
%%IncludeResource: font Courier-BoldOblique
%%IncludeResource: font Symbol
%%IncludeResource: font ZapfDingbats
/reEncode {exch findfont dup length dict begin {1 index /FID eq  {pop pop} {def} ifelse } forall /Encoding exch def currentdict end dup /FontName get exch definefont pop } def [/Times-Bold /Times-Italic /Times-BoldItalic /Helvetica /Helvetica-Oblique
 /Helvetica-Bold /Helvetica-BoldOblique /Courier /Courier-Oblique /Courier-Bold /Courier-BoldOblique /Times-Roman /AvantGarde-Book /AvantGarde-BookOblique /AvantGarde-Demi /AvantGarde-DemiOblique /Bookman-Demi /Bookman-DemiItalic /Bookman-Light
 /Bookman-LightItalic /Helvetica-Narrow /Helvetica-Narrow-Bold /Helvetica-Narrow-BoldOblique /Helvetica-Narrow-Oblique /NewCenturySchlbk-Roman /NewCenturySchlbk-Bold /NewCenturySchlbk-BoldItalic /NewCenturySchlbk-Italic /Palatino-Bold
 /Palatino-BoldItalic /Palatino-Italic /Palatino-Roman ] {ISOLatin1Encoding reEncode } forall
%%EndProlog
%%BeginSetup
%%EndSetup
newpath  gsave  .25 .25 scale  gsave  0 0 t black[  ] 0 sd 3 lw 1 1 1 c 2268 813 0 0 bf black 1 1 1 c 1088 797 23 8 bf black 1 1 1 c 870 637 132 88 bf black 870 637 132 88 bl 1 1 1 c 870 637 132 88 bf black 870 637 132 88 bl 0.35 0.33 0.85 c 1 1 1 c
 black 0.35 0.33 0.85 c 132 132 m 33 X -36 Y 34 X 19 Y 33 X 18 Y 33 X 50 Y 34 X 46 Y 33 X 113 Y 34 X 85 Y 33 X -5 Y 34 X -111 Y 33 X -2 Y 34 X -3 Y 33 X 39 Y 34 X -16 Y 33 X -43 Y 34 X -76 Y 33 X -58 Y 34 X -36 Y 33 X -20 Y 34 X -6 Y 33 X -1 Y 34 X
 -1 Y 167 X s black 132 88 m 870 X s 148 107 m -19 Y s 182 97 m -9 Y s 215 97 m -9 Y s 249 97 m -9 Y s 282 97 m -9 Y s 316 107 m -19 Y s 349 97 m -9 Y s 383 97 m -9 Y s 416 97 m -9 Y s 450 97 m -9 Y s 483 107 m -19 Y s 517 97 m -9 Y s 550 97 m -9 Y s
 584 97 m -9 Y s 617 97 m -9 Y s 651 107 m -19 Y s 684 97 m -9 Y s 718 97 m -9 Y s 751 97 m -9 Y s 785 97 m -9 Y s 818 107 m -19 Y s 852 97 m -9 Y s 885 97 m -9 Y s 919 97 m -9 Y s 952 97 m -9 Y s 986 107 m -19 Y s 148 107 m -19 Y s 986 107 m -19 Y s
 gsave  1088 797 23 8 C 140.667 62.5185 t 0 r /Helvetica findfont 25.6013 sf 0 0 m (0) show NC gr 
 gsave  1088 797 23 8 C 308.33 62.5185 t 0 r /Helvetica findfont 25.6013 sf 0 0 m (5) show NC gr 
 gsave  1088 797 23 8 C 468.889 62.5185 t 0 r /Helvetica findfont 25.6013 sf 0 0 m (10) show NC gr 
 gsave  1088 797 23 8 C 635.131 62.5185 t 0 r /Helvetica findfont 25.6013 sf 0 0 m (15) show NC gr 
 gsave  1088 797 23 8 C 802.794 62.5185 t 0 r /Helvetica findfont 25.6013 sf 0 0 m (20) show NC gr 
 gsave  1088 797 23 8 C 970.458 62.5185 t 0 r /Helvetica findfont 25.6013 sf 0 0 m (25) show NC gr 
 gsave  1088 797 23 8 C 771.535 21.3131 t 0 r /Helvetica findfont 34.1351 sf 0 0 m (roads per event) show NC gr  132 88 m 637 Y s 158 88 m -26 X s 145 104 m -13 X s 145 120 m -13 X s 145 137 m -13 X s 145 153 m -13 X s 158 169 m -26 X s 145 186 m -13
 X s 145 202 m -13 X s 145 218 m -13 X s 145 235 m -13 X s 158 251 m -26 X s 145 267 m -13 X s 145 284 m -13 X s 145 300 m -13 X s 145 317 m -13 X s 158 333 m -26 X s 145 349 m -13 X s 145 366 m -13 X s 145 382 m -13 X s 145 398 m -13 X s 158 415 m
 -26 X s 145 431 m -13 X s 145 447 m -13 X s 145 464 m -13 X s 145 480 m -13 X s 158 496 m -26 X s 145 513 m -13 X s 145 529 m -13 X s 145 545 m -13 X s 145 562 m -13 X s 158 578 m -26 X s 145 594 m -13 X s 145 611 m -13 X s 145 627 m -13 X s 145 643
 m -13 X s 158 660 m -26 X s 158 660 m -26 X s 145 676 m -13 X s 145 692 m -13 X s 145 709 m -13 X s
 gsave  1088 797 23 8 C 110.828 78.1481 t 0 r /Helvetica findfont 25.6013 sf 0 0 m (0) show NC gr 
 gsave  1088 797 23 8 C 82.4108 160.559 t 0 r /Helvetica findfont 25.6013 sf 0 0 m (500) show NC gr 
 gsave  1088 797 23 8 C 68.202 241.549 t 0 r /Helvetica findfont 25.6013 sf 0 0 m (1000) show NC gr 
 gsave  1088 797 23 8 C 68.202 323.96 t 0 r /Helvetica findfont 25.6013 sf 0 0 m (1500) show NC gr 
 gsave  1088 797 23 8 C 68.202 404.949 t 0 r /Helvetica findfont 25.6013 sf 0 0 m (2000) show NC gr 
 gsave  1088 797 23 8 C 68.202 487.36 t 0 r /Helvetica findfont 25.6013 sf 0 0 m (2500) show NC gr 
 gsave  1088 797 23 8 C 68.202 568.35 t 0 r /Helvetica findfont 25.6013 sf 0 0 m (3000) show NC gr 
 gsave  1088 797 23 8 C 68.202 650.761 t 0 r /Helvetica findfont 25.6013 sf 0 0 m (3500) show NC gr 
 gsave  1088 797 23 8 C 56.835 618.081 t 90 r /Helvetica findfont 36.9797 sf 0 0 m (entries) show NC gr  1 1 1 c 240 119 730 128 bf black
 gsave  1088 797 23 8 C 879.522 204.606 t 0 r /Helvetica findfont 29.8682 sf 0 0 m ( < 0.3) show NC gr 
 gsave  1088 797 23 8 C 862.471 204.606 t 0 r /Symbol findfont 29.8682 sf 0 0 m (h) show NC gr 
 gsave  1088 797 23 8 C 790.007 204.606 t 0 r /Helvetica findfont 29.8682 sf 0 0 m (0.1 < ) show NC gr  0.35 0.33 0.85 c 739 217 m 42 X s /w 11 def /w2 {w 2 div} def /w3 {w 3 div} def 760 217 m20 black
 gsave  1088 797 23 8 C 879.522 144.929 t 0 r /Helvetica findfont 29.8682 sf 0 0 m ( < 0.9) show NC gr 
 gsave  1088 797 23 8 C 862.471 144.929 t 0 r /Symbol findfont 29.8682 sf 0 0 m (h) show NC gr 
 gsave  1088 797 23 8 C 790.007 144.929 t 0 r /Helvetica findfont 29.8682 sf 0 0 m (0.7 < ) show NC gr  0.6 0 0 c 739 157 m 42 X s 760 157 m25[ 80 20] 0 sd 1 1 1 c black 0.6 0 0 c 132 117 m 33 X -10 Y 34 X 20 Y 33 X 32 Y 33 X 86 Y 34 X 110 Y 33 X 181
 Y 34 X 42 Y 67 X -164 Y 33 X -218 Y 34 X -77 Y 33 X -25 Y 34 X -4 Y 33 X -2 Y 402 X s black
 gsave  1088 797 23 8 C 184.714 686.283 t 0 r /Times-Italic findfont 29.8682 sf 0 0 m (ATLAS Simulation Preliminary) show NC gr 
 gsave  1088 797 23 8 C 184.714 646.498 t 0 r /Times-Italic findfont 29.8682 sf 0 0 m (Hough Transform 2D, scenario 2) show NC gr 
 gsave  1088 797 23 8 C 184.714 606.714 t 0 r /Times-Italic findfont 29.8682 sf 0 0 m (20,000 single muons, no pile\255up) show NC gr  0.35 0.33 0.85 c black 0.35 0.33 0.85 c
 gsave  1088 797 23 8 C 728.909 646.498 t 0 r /Times-Italic findfont 29.8682 sf 0 0 m (< roads > = 9.4) show NC gr  0.6 0 0 c black 0.6 0 0 c
 gsave  1088 797 23 8 C 728.909 606.714 t 0 r /Times-Italic findfont 29.8682 sf 0 0 m (< roads > = 6.9) show NC gr  black[  ] 0 sd 1 1 1 c 1088 797 1157 8 bf black 1 1 1 c 871 637 1265 88 bf black 871 637 1265 88 bl 1 1 1 c 871 637 1265 88 bf black
 871 637 1265 88 bl 0.35 0.33 0.85 c 1 1 1 c black 0.35 0.33 0.85 c 1265 132 m 22 X -39 Y 21 X 11 Y 21 X 12 Y 21 X 32 Y 22 X 22 Y 21 X 69 Y 21 X 25 Y 21 X 10 Y 22 X -63 Y 21 X 13 Y 21 X 1 Y 21 X 46 Y 21 X -28 Y 22 X 2 Y 21 X -68 Y 21 X -2 Y 21 X -51
 Y 22 X 14 Y 21 X -26 Y 21 X 34 Y 21 X -34 Y 22 X 30 Y 21 X -32 Y 21 X 47 Y 21 X -48 Y 22 X 45 Y 21 X -47 Y 21 X 40 Y 21 X -47 Y 22 X 25 Y 21 X -28 Y 21 X 27 Y 21 X -28 Y 22 X 15 Y 21 X -19 Y 21 X 22 Y 21 X -20 Y 21 X 12 Y 22 X -13 Y 21 X 20 Y 21 X s
 black 1265 88 m 871 X s 1276 107 m -19 Y s 1297 97 m -9 Y s 1318 97 m -9 Y s 1340 97 m -9 Y s 1361 97 m -9 Y s 1382 107 m -19 Y s 1403 97 m -9 Y s 1425 97 m -9 Y s 1446 97 m -9 Y s 1467 97 m -9 Y s 1488 107 m -19 Y s 1510 97 m -9 Y s 1531 97 m -9 Y
 s 1552 97 m -9 Y s 1573 97 m -9 Y s 1595 107 m -19 Y s 1616 97 m -9 Y s 1637 97 m -9 Y s 1658 97 m -9 Y s 1680 97 m -9 Y s 1701 107 m -19 Y s 1722 97 m -9 Y s 1743 97 m -9 Y s 1765 97 m -9 Y s 1786 97 m -9 Y s 1807 107 m -19 Y s 1828 97 m -9 Y s
 1849 97 m -9 Y s 1871 97 m -9 Y s 1892 97 m -9 Y s 1913 107 m -19 Y s 1934 97 m -9 Y s 1956 97 m -9 Y s 1977 97 m -9 Y s 1998 97 m -9 Y s 2019 107 m -19 Y s 2041 97 m -9 Y s 2062 97 m -9 Y s 2083 97 m -9 Y s 2104 97 m -9 Y s 2126 107 m -19 Y s 1276
 107 m -19 Y s 2126 107 m -19 Y s
 gsave  1088 797 1157 8 C 1268.84 62.5185 t 0 r /Helvetica findfont 25.6013 sf 0 0 m (0) show NC gr 
 gsave  1088 797 1157 8 C 1373.99 62.5185 t 0 r /Helvetica findfont 25.6013 sf 0 0 m (5) show NC gr 
 gsave  1088 797 1157 8 C 1473.45 62.5185 t 0 r /Helvetica findfont 25.6013 sf 0 0 m (10) show NC gr 
 gsave  1088 797 1157 8 C 1580.01 62.5185 t 0 r /Helvetica findfont 25.6013 sf 0 0 m (15) show NC gr 
 gsave  1088 797 1157 8 C 1686.58 62.5185 t 0 r /Helvetica findfont 25.6013 sf 0 0 m (20) show NC gr 
 gsave  1088 797 1157 8 C 1791.72 62.5185 t 0 r /Helvetica findfont 25.6013 sf 0 0 m (25) show NC gr 
 gsave  1088 797 1157 8 C 1898.29 62.5185 t 0 r /Helvetica findfont 25.6013 sf 0 0 m (30) show NC gr 
 gsave  1088 797 1157 8 C 2004.85 62.5185 t 0 r /Helvetica findfont 25.6013 sf 0 0 m (35) show NC gr 
 gsave  1088 797 1157 8 C 2110 62.5185 t 0 r /Helvetica findfont 25.6013 sf 0 0 m (40) show NC gr 
 gsave  1088 797 1157 8 C 1747.68 21.3131 t 0 r /Helvetica findfont 34.1351 sf 0 0 m (hit combinations per event) show NC gr  1265 88 m 637 Y s 1292 88 m -27 X s 1278 104 m -13 X s 1278 120 m -13 X s 1278 137 m -13 X s 1278 153 m -13 X s 1292 169 m
 -27 X s 1278 186 m -13 X s 1278 202 m -13 X s 1278 218 m -13 X s 1278 235 m -13 X s 1292 251 m -27 X s 1278 267 m -13 X s 1278 284 m -13 X s 1278 300 m -13 X s 1278 317 m -13 X s 1292 333 m -27 X s 1278 349 m -13 X s 1278 366 m -13 X s 1278 382 m
 -13 X s 1278 398 m -13 X s 1292 415 m -27 X s 1278 431 m -13 X s 1278 447 m -13 X s 1278 464 m -13 X s 1278 480 m -13 X s 1292 496 m -27 X s 1278 513 m -13 X s 1278 529 m -13 X s 1278 545 m -13 X s 1278 562 m -13 X s 1292 578 m -27 X s 1278 594 m
 -13 X s 1278 611 m -13 X s 1278 627 m -13 X s 1278 643 m -13 X s 1292 660 m -27 X s 1292 660 m -27 X s 1278 676 m -13 X s 1278 692 m -13 X s 1278 709 m -13 X s
 gsave  1088 797 1157 8 C 1244.69 78.1481 t 0 r /Helvetica findfont 25.6013 sf 0 0 m (0) show NC gr 
 gsave  1088 797 1157 8 C 1216.27 160.559 t 0 r /Helvetica findfont 25.6013 sf 0 0 m (500) show NC gr 
 gsave  1088 797 1157 8 C 1202.06 241.549 t 0 r /Helvetica findfont 25.6013 sf 0 0 m (1000) show NC gr 
 gsave  1088 797 1157 8 C 1202.06 323.96 t 0 r /Helvetica findfont 25.6013 sf 0 0 m (1500) show NC gr 
 gsave  1088 797 1157 8 C 1202.06 404.949 t 0 r /Helvetica findfont 25.6013 sf 0 0 m (2000) show NC gr 
 gsave  1088 797 1157 8 C 1202.06 487.36 t 0 r /Helvetica findfont 25.6013 sf 0 0 m (2500) show NC gr 
 gsave  1088 797 1157 8 C 1202.06 568.35 t 0 r /Helvetica findfont 25.6013 sf 0 0 m (3000) show NC gr 
 gsave  1088 797 1157 8 C 1202.06 650.761 t 0 r /Helvetica findfont 25.6013 sf 0 0 m (3500) show NC gr 
 gsave  1088 797 1157 8 C 1192.11 618.081 t 90 r /Helvetica findfont 36.9797 sf 0 0 m (entries) show NC gr  1 1 1 c 240 119 1864 128 bf black
 gsave  1088 797 1157 8 C 2013.38 204.606 t 0 r /Helvetica findfont 29.8682 sf 0 0 m ( < 0.3) show NC gr 
 gsave  1088 797 1157 8 C 1996.33 204.606 t 0 r /Symbol findfont 29.8682 sf 0 0 m (h) show NC gr 
 gsave  1088 797 1157 8 C 1923.86 204.606 t 0 r /Helvetica findfont 29.8682 sf 0 0 m (0.1 < ) show NC gr  0.35 0.33 0.85 c 1873 217 m 42 X s 1894 217 m20 black
 gsave  1088 797 1157 8 C 2013.38 144.929 t 0 r /Helvetica findfont 29.8682 sf 0 0 m ( < 0.9) show NC gr 
 gsave  1088 797 1157 8 C 1996.33 144.929 t 0 r /Symbol findfont 29.8682 sf 0 0 m (h) show NC gr 
 gsave  1088 797 1157 8 C 1923.86 144.929 t 0 r /Helvetica findfont 29.8682 sf 0 0 m (0.7 < ) show NC gr  0.6 0 0 c 1873 157 m 42 X s 1894 157 m25[ 80 20] 0 sd 1 1 1 c black 0.6 0 0 c 1265 117 m 22 X -17 Y 21 X 15 Y 21 X 16 Y 21 X 52 Y 22 X 54 Y 21 X
 105 Y 21 X 114 Y 21 X -25 Y 22 X -208 Y 21 X -45 Y 21 X -32 Y 21 X 45 Y 21 X -21 Y 22 X 41 Y 21 X -52 Y 21 X 22 Y 21 X -58 Y 22 X 18 Y 21 X -35 Y 21 X 15 Y 21 X -10 Y 22 X 11 Y 21 X -14 Y 21 X 27 Y 21 X -26 Y 22 X 25 Y 21 X -20 Y 21 X 25 Y 21 X -33
 Y 22 X 17 Y 21 X -21 Y 21 X 15 Y 21 X -18 Y 22 X 5 Y 21 X -10 Y 21 X 11 Y 21 X -13 Y 21 X 6 Y 22 X -6 Y 21 X 6 Y 21 X s black
 gsave  1088 797 1157 8 C 1318.57 686.283 t 0 r /Times-Italic findfont 29.8682 sf 0 0 m (ATLAS Simulation Preliminary) show NC gr 
 gsave  1088 797 1157 8 C 1318.57 646.498 t 0 r /Times-Italic findfont 29.8682 sf 0 0 m (Hough Transform 2D, scenario 2) show NC gr 
 gsave  1088 797 1157 8 C 1318.57 606.714 t 0 r /Times-Italic findfont 29.8682 sf 0 0 m (20,000 single muons, no pile\255up) show NC gr  0.35 0.33 0.85 c black 0.35 0.33 0.85 c
 gsave  1088 797 1157 8 C 1808.77 646.498 t 0 r /Times-Italic findfont 29.8682 sf 0 0 m (< combos > = 21.8) show NC gr  0.6 0 0 c black 0.6 0 0 c
 gsave  1088 797 1157 8 C 1862.77 606.714 t 0 r /Times-Italic findfont 29.8682 sf 0 0 m (< combos > = 17.1) show NC gr 
 gr  gr showpage
end
%%EOF
