%!PS-Adobe-2.0 EPSF-2.0
%%BoundingBox:  0 0 497 737
%%Title: plots/HoughTransformPlots.eps: can
%%Creator: ROOT Version 6.22/08
%%CreationDate: Tue Apr 27 00:04:51 2021
%%DocumentNeededResources: ProcSet (FontSetInit)
%%EndComments
%%BeginProlog
80 dict begin
/s {stroke} def /l {lineto} def /m {moveto} def /t {translate} def
/r {rotate} def /rl {roll}  def /R {repeat} def
/d {rlineto} def /rm {rmoveto} def /gr {grestore} def /f {eofill} def
/c {setrgbcolor} def /black {0 setgray} def /sd {setdash} def
/cl {closepath} def /sf {scalefont setfont} def /lw {setlinewidth} def
/box {m dup 0 exch d exch 0 d 0 exch neg d cl} def
/NC{systemdict begin initclip end}def/C{NC box clip newpath}def
/bl {box s} def /bf {gsave box gsave f grestore 1 lw [] 0 sd s grestore} def /Y { 0 exch d} def /X { 0 d} def 
/K {{pop pop 0 moveto} exch kshow} bind def
/ita {/ang 15 def gsave [1 0 ang dup sin exch cos div 1 0 0] concat} def 
/mp {newpath /y exch def /x exch def} def
/side {[w .77 mul w .23 mul] .385 w mul sd w 0 l currentpoint t -144 r} def
/mr {mp x y w2 0 360 arc} def /m24 {mr s} def /m20 {mr f} def
/mb {mp x y w2 add m w2 neg 0 d 0 w neg d w 0 d 0 w d cl} def
/mt {mp x y w2 add m w2 neg w neg d w 0 d cl} def
/w4 {w 4 div} def
/w6 {w 6 div} def
/w8 {w 8 div} def
/m21 {mb f} def /m25 {mb s} def /m22 {mt f} def /m26{mt s} def
/m23 {mp x y w2 sub m w2 w d w neg 0 d cl f} def
/m27 {mp x y w2 add m w3 neg w2 neg d w3 w2 neg d w3 w2 d cl s} def
/m28 {mp x w2 sub y w2 sub w3 add m w3 0 d  0 w3 neg d w3 0 d 0 w3 d w3 0 d  0 w3 d w3 neg 0 d 0 w3 d w3 neg 0 d 0 w3 neg d w3 neg 0 d cl s } def
/m29 {mp gsave x w2 sub y w2 add w3 sub m currentpoint t 4 {side} repeat cl fill gr} def
/m30 {mp gsave x w2 sub y w2 add w3 sub m currentpoint t 4 {side} repeat cl s gr} def
/m31 {mp x y w2 sub m 0 w d x w2 sub y m w 0 d x w2 .707 mul sub y w2 .707 mul add m w 1.44 div w 1.44 div neg d x w2 .707 mul sub y w2 .707 mul sub m w 1.44 div w 1.44 div d s} def
/m32 {mp x y w2 sub m w2 w d w neg 0 d cl s} def
/m33 {mp x y w2 add m w3 neg w2 neg d w3 w2 neg d w3 w2 d cl f} def
/m34 {mp x w2 sub y w2 sub w3 add m w3 0 d  0 w3 neg d w3 0 d 0 w3 d w3 0 d  0 w3 d w3 neg 0 d 0 w3 d w3 neg 0 d 0 w3 neg d w3 neg 0 d cl f } def
/m35 {mp x y w2 add m w2 neg w2 neg d w2 w2 neg d w2 w2 d w2 neg w2 d x y w2 sub m 0 w d x w2 sub y m w 0 d s} def
/m36 {mb x w2 sub y w2 add m w w neg d x w2 sub y w2 sub m w w d s} def
/m37 {mp x y m w4 neg w2 d w4 neg w2 neg d w2 0 d  w4 neg w2 neg d w2 0 d w4 neg w2 d w2 0 d w4 neg w2 d w4 neg w2 neg d cl s} def
/m38 {mp x w4 sub y w2 add m w4 neg w4 neg d 0 w2 neg d w4 w4 neg d w2 0 d w4 w4 d 0 w2 d w4 neg w4 d w2 neg 0 d x y w2 sub m 0 w d x w2 sub y m w 0 d cl s} def
/m39 {mp x y m w4 neg w2 d w4 neg w2 neg d w2 0 d  w4 neg w2 neg d w2 0 d w4 neg w2 d w2 0 d w4 neg w2 d w4 neg w2 neg d cl f} def
/m40 {mp x y m w4 w2 d w4 w4 neg d w2 neg w4 neg d w2 w4 neg d w4 neg w4 neg d w4 neg w2 d w4 neg w2 neg d w4 neg w4 d w2 w4 d w2 neg w4 d w4 w4 d w4 w2 neg d cl s} def
/m41 {mp x y m w4 w2 d w4 w4 neg d w2 neg w4 neg d w2 w4 neg d w4 neg w4 neg d w4 neg w2 d w4 neg w2 neg d w4 neg w4 d w2 w4 d w2 neg w4 d w4 w4 d w4 w2 neg d cl f} def
/m42 {mp x y w2 add m w8 neg w2 -3 4 div mul d w2 -3 4 div mul w8 neg d w2 3 4 div mul w8 neg d w8 w2 -3 4 div mul d w8 w2 3 4 div mul d w2 3 4 div mul w8 d w2 -3 4 div mul w8 d w8 neg w2 3 4 div mul d cl s} def
/m43 {mp x y w2 add m w8 neg w2 -3 4 div mul d w2 -3 4 div mul w8 neg d w2 3 4 div mul w8 neg d w8 w2 -3 4 div mul d w8 w2 3 4 div mul d w2 3 4 div mul w8 d w2 -3 4 div mul w8 d w8 neg w2 3 4 div mul d cl f} def
/m44 {mp x y m w6 neg w2 d w2 2 3 div mul 0 d w6 neg w2 neg d w2 w6 d 0 w2 -2 3 div mul d w2 neg w6 d w6 w2 neg d w2 -2 3 div mul 0 d w6 w2 d w2 neg w6 neg d 0 w2 2 3 div mul d w2 w6 neg d cl s} def
/m45 {mp x y m w6 neg w2 d w2 2 3 div mul 0 d w6 neg w2 neg d w2 w6 d 0 w2 -2 3 div mul d w2 neg w6 d w6 w2 neg d w2 -2 3 div mul 0 d w6 w2 d w2 neg w6 neg d 0 w2 2 3 div mul d w2 w6 neg d cl f} def
/m46 {mp x y w4 add m w4 neg w4 d w4 neg w4 neg d  w4 w4 neg d w4 neg w4 neg d w4 w4 neg d w4 w4 d w4 w4 neg d w4 w4 d w4 neg w4 d w4 w4 d w4 neg w4 d w4 neg w4 neg d cl s} def
/m47 {mp x y w4 add m w4 neg w4 d w4 neg w4 neg d w4 w4 neg d w4 neg w4 neg d  w4 w4 neg d w4 w4 d w4 w4 neg d w4 w4 d w4 neg w4 d w4 w4 d w4 neg w4 d w4 neg w4 neg d cl f} def
/m48 {mp x y w4 add m w4 neg w4 d w4 neg w4 neg d w4 w4 neg d  w4 neg w4 neg d w4 w4 neg d w4 w4 d w4 w4 neg d w4 w4 d w4 neg w4 d w4 w4 d w4 neg w4 d w4 neg w4 neg d  w4 w4 neg d w4 neg w4 neg d w4 neg w4 d w4 w4 d cl f} def
/m49 {mp x w2 sub w3 add y w2 sub w3 add m  0 w3 neg d w3 0 d 0 w3 d w3 0 d 0 w3 d w3 neg 0 d 0 w3 d w3 neg 0 d 0 w3 neg d w3 neg 0 d 0 w3 neg d w3 0 d 0 w3 d w3 0 d 0 w3 neg d w3 neg 0 d cl f } def
/m2 {mp x y w2 sub m 0 w d x w2 sub y m w 0 d s} def
/m5 {mp x w2 .707 mul sub y w2 .707 mul sub m w 1.44 div w 1.44 div d x w2 .707 mul sub y w2 .707 mul add m w 1.44 div w 1.44 div neg d s} def
%%IncludeResource: ProcSet (FontSetInit)
%%IncludeResource: font Times-Roman
%%IncludeResource: font Times-Italic
%%IncludeResource: font Times-Bold
%%IncludeResource: font Times-BoldItalic
%%IncludeResource: font Helvetica
%%IncludeResource: font Helvetica-Oblique
%%IncludeResource: font Helvetica-Bold
%%IncludeResource: font Helvetica-BoldOblique
%%IncludeResource: font Courier
%%IncludeResource: font Courier-Oblique
%%IncludeResource: font Courier-Bold
%%IncludeResource: font Courier-BoldOblique
%%IncludeResource: font Symbol
%%IncludeResource: font ZapfDingbats
/reEncode {exch findfont dup length dict begin {1 index /FID eq  {pop pop} {def} ifelse } forall /Encoding exch def currentdict end dup /FontName get exch definefont pop } def [/Times-Bold /Times-Italic /Times-BoldItalic /Helvetica /Helvetica-Oblique
 /Helvetica-Bold /Helvetica-BoldOblique /Courier /Courier-Oblique /Courier-Bold /Courier-BoldOblique /Times-Roman /AvantGarde-Book /AvantGarde-BookOblique /AvantGarde-Demi /AvantGarde-DemiOblique /Bookman-Demi /Bookman-DemiItalic /Bookman-Light
 /Bookman-LightItalic /Helvetica-Narrow /Helvetica-Narrow-Bold /Helvetica-Narrow-BoldOblique /Helvetica-Narrow-Oblique /NewCenturySchlbk-Roman /NewCenturySchlbk-Bold /NewCenturySchlbk-BoldItalic /NewCenturySchlbk-Italic /Palatino-Bold
 /Palatino-BoldItalic /Palatino-Italic /Palatino-Roman ] {ISOLatin1Encoding reEncode } forall
%%EndProlog
%%BeginSetup
%%EndSetup
newpath  gsave  .25 .25 scale  gsave  0 0 t black[  ] 0 sd 3 lw 1 1 1 c 1990 2948 0 0 bf black 1 1 1 c 955 924 20 1995 bf black 1 1 1 c 764 739 115 2087 bf black 764 739 115 2087 bl 1 1 1 c 764 739 115 2087 bf black 764 739 115 2087 bl 115 2087 m 764
 X s 115 2109 m -22 Y s 135 2098 m -11 Y s 154 2098 m -11 Y s 173 2098 m -11 Y s 192 2098 m -11 Y s 211 2109 m -22 Y s 230 2098 m -11 Y s 249 2098 m -11 Y s 268 2098 m -11 Y s 287 2098 m -11 Y s 306 2109 m -22 Y s 326 2098 m -11 Y s 345 2098 m -11 Y
 s 364 2098 m -11 Y s 383 2098 m -11 Y s 402 2109 m -22 Y s 421 2098 m -11 Y s 440 2098 m -11 Y s 459 2098 m -11 Y s 478 2098 m -11 Y s 497 2109 m -22 Y s 517 2098 m -11 Y s 536 2098 m -11 Y s 555 2098 m -11 Y s 574 2098 m -11 Y s 593 2109 m -22 Y s
 612 2098 m -11 Y s 631 2098 m -11 Y s 650 2098 m -11 Y s 669 2098 m -11 Y s 688 2109 m -22 Y s 708 2098 m -11 Y s 727 2098 m -11 Y s 746 2098 m -11 Y s 765 2098 m -11 Y s 784 2109 m -22 Y s 803 2098 m -11 Y s 822 2098 m -11 Y s 841 2098 m -11 Y s
 860 2098 m -11 Y s 879 2109 m -22 Y s
 gsave  955 924 20 1995 C 96.4931 2057.97 t 0 r /Helvetica findfont 29.9584 sf 0 0 m (0.1) show NC gr 
 gsave  955 924 20 1995 C 189.659 2057.97 t 0 r /Helvetica findfont 29.9584 sf 0 0 m (0.2) show NC gr 
 gsave  955 924 20 1995 C 286.152 2057.97 t 0 r /Helvetica findfont 29.9584 sf 0 0 m (0.3) show NC gr 
 gsave  955 924 20 1995 C 380.982 2057.97 t 0 r /Helvetica findfont 29.9584 sf 0 0 m (0.4) show NC gr 
 gsave  955 924 20 1995 C 477.475 2057.97 t 0 r /Helvetica findfont 29.9584 sf 0 0 m (0.5) show NC gr 
 gsave  955 924 20 1995 C 572.304 2057.97 t 0 r /Helvetica findfont 29.9584 sf 0 0 m (0.6) show NC gr 
 gsave  955 924 20 1995 C 667.134 2057.97 t 0 r /Helvetica findfont 29.9584 sf 0 0 m (0.7) show NC gr 
 gsave  955 924 20 1995 C 763.627 2057.97 t 0 r /Helvetica findfont 29.9584 sf 0 0 m (0.8) show NC gr 
 gsave  955 924 20 1995 C 858.456 2057.97 t 0 r /Helvetica findfont 29.9584 sf 0 0 m (0.9) show NC gr 
 gsave  955 924 20 1995 C 855.129 2003.06 t 0 r /Symbol findfont 43.2732 sf 0 0 m (h) show NC gr 
 gsave  955 924 20 1995 C 469.156 2003.06 t 0 r /Helvetica findfont 43.2732 sf 0 0 m (true pseudo\255rapidity ) show NC gr  115 2087 m 739 Y s 138 2087 m -23 X s 127 2102 m -12 X s 127 2117 m -12 X s 127 2132 m -12 X s 127 2146 m -12 X s 138 2161 m
 -23 X s 127 2176 m -12 X s 127 2191 m -12 X s 127 2205 m -12 X s 127 2220 m -12 X s 138 2235 m -23 X s 127 2250 m -12 X s 127 2265 m -12 X s 127 2279 m -12 X s 127 2294 m -12 X s 138 2309 m -23 X s 127 2324 m -12 X s 127 2338 m -12 X s 127 2353 m
 -12 X s 127 2368 m -12 X s 138 2383 m -23 X s 127 2398 m -12 X s 127 2412 m -12 X s 127 2427 m -12 X s 127 2442 m -12 X s 138 2457 m -23 X s 127 2471 m -12 X s 127 2486 m -12 X s 127 2501 m -12 X s 127 2516 m -12 X s 138 2531 m -23 X s 127 2545 m
 -12 X s 127 2560 m -12 X s 127 2575 m -12 X s 127 2590 m -12 X s 138 2604 m -23 X s 127 2619 m -12 X s 127 2634 m -12 X s 127 2649 m -12 X s 127 2664 m -12 X s 138 2678 m -23 X s 127 2693 m -12 X s 127 2708 m -12 X s 127 2723 m -12 X s 127 2738 m
 -12 X s 138 2752 m -23 X s 127 2767 m -12 X s 127 2782 m -12 X s 127 2797 m -12 X s 127 2811 m -12 X s 138 2826 m -23 X s
 gsave  955 924 20 1995 C 69.8743 2076.27 t 0 r /Helvetica findfont 29.9584 sf 0 0 m (0.9) show NC gr 
 gsave  955 924 20 1995 C 58.2286 2149.47 t 0 r /Helvetica findfont 29.9584 sf 0 0 m (0.91) show NC gr 
 gsave  955 924 20 1995 C 53.2376 2224.33 t 0 r /Helvetica findfont 29.9584 sf 0 0 m (0.92) show NC gr 
 gsave  955 924 20 1995 C 53.2376 2297.53 t 0 r /Helvetica findfont 29.9584 sf 0 0 m (0.93) show NC gr 
 gsave  955 924 20 1995 C 53.2376 2372.4 t 0 r /Helvetica findfont 29.9584 sf 0 0 m (0.94) show NC gr 
 gsave  955 924 20 1995 C 53.2376 2445.6 t 0 r /Helvetica findfont 29.9584 sf 0 0 m (0.95) show NC gr 
 gsave  955 924 20 1995 C 53.2376 2520.47 t 0 r /Helvetica findfont 29.9584 sf 0 0 m (0.96) show NC gr 
 gsave  955 924 20 1995 C 53.2376 2593.67 t 0 r /Helvetica findfont 29.9584 sf 0 0 m (0.97) show NC gr 
 gsave  955 924 20 1995 C 53.2376 2666.87 t 0 r /Helvetica findfont 29.9584 sf 0 0 m (0.98) show NC gr 
 gsave  955 924 20 1995 C 53.2376 2741.74 t 0 r /Helvetica findfont 29.9584 sf 0 0 m (0.99) show NC gr 
 gsave  955 924 20 1995 C 98.1568 2814.94 t 0 r /Helvetica findfont 29.9584 sf 0 0 m (1) show NC gr 
 gsave  955 924 20 1995 C 58.2286 2648.57 t 90 r /Helvetica findfont 43.2732 sf 0 0 m (efficiency) show NC gr  0.35 0.33 0.85 c 118 2687 m -3 X s 115 2684 m 6 Y s 132 2687 m 3 X s 135 2684 m 6 Y s 125 2693 m 18 Y s 122 2711 m 6 X s 125 2680 m -22 Y s
 122 2658 m 6 X s 137 2694 m -2 X s 135 2690 m 7 Y s 151 2694 m 3 X s 154 2690 m 7 Y s 144 2700 m 17 Y s 141 2717 m 6 X s 144 2687 m -21 Y s 141 2666 m 6 X s 157 2719 m -3 X s 154 2715 m 7 Y s 170 2719 m 3 X s 173 2715 m 7 Y s 163 2725 m 14 Y s 160
 2739 m 6 X s 163 2712 m -19 Y s 160 2693 m 6 X s 176 2698 m -3 X s 173 2695 m 7 Y s 189 2698 m 3 X s 192 2695 m 7 Y s 182 2705 m 16 Y s 179 2721 m 7 X s 182 2692 m -21 Y s 179 2671 m 7 X s 195 2690 m -3 X s 192 2687 m 7 Y s 208 2690 m 3 X s 211 2687
 m 7 Y s 201 2697 m 17 Y s 198 2714 m 7 X s 201 2684 m -22 Y s 198 2662 m 7 X s 214 2725 m -3 X s 211 2722 m 6 Y s 227 2725 m 3 X s 230 2722 m 6 Y s 220 2731 m 14 Y s 217 2745 m 7 X s 220 2718 m -18 Y s 217 2700 m 7 X s 233 2714 m -3 X s 230 2711 m 6
 Y s 246 2714 m 3 X s 249 2711 m 6 Y s 240 2721 m 14 Y s 236 2735 m 7 X s 240 2707 m -19 Y s 236 2688 m 7 X s 252 2707 m -3 X s 249 2704 m 7 Y s 265 2707 m 3 X s 268 2704 m 7 Y s 259 2714 m 16 Y s 255 2730 m 7 X s 259 2701 m -20 Y s 255 2681 m 7 X s
 271 2737 m -3 X s 268 2734 m 6 Y s 284 2737 m 3 X s 287 2734 m 6 Y s 278 2744 m 12 Y s 274 2756 m 7 X s 278 2730 m -16 Y s 274 2714 m 7 X s 290 2747 m -3 X s 287 2743 m 7 Y s 304 2747 m 2 X s 306 2743 m 7 Y s 297 2753 m 12 Y s 294 2765 m 6 X s 297
 2740 m -16 Y s 294 2724 m 6 X s black 0.35 0.33 0.85 c 125 2687 m 19 7 d 19 25 d 19 -21 d 19 -8 d 19 35 d 20 -11 d 19 -7 d 19 30 d 19 10 d s /w 13 def /w2 {w 2 div} def /w3 {w 3 div} def 125 2687 144 2694 163 2719 182 2698 201 2690 220 2725 240 2714
 259 2707 278 2737 297 2747 10 { m20} R 0.6 0 0 c 691 2759 m -3 X s 688 2755 m 7 Y s 705 2759 m 3 X s 708 2755 m 7 Y s 698 2765 m 10 Y s 695 2775 m 6 X s 698 2752 m -15 Y s 695 2737 m 6 X s 710 2770 m -2 X s 708 2767 m 7 Y s 724 2770 m 3 X s 727 2767
 m 7 Y s 717 2777 m 9 Y s 714 2786 m 6 X s 717 2764 m -14 Y s 714 2750 m 6 X s 730 2743 m -3 X s 727 2740 m 6 Y s 743 2743 m 3 X s 746 2740 m 6 Y s 736 2750 m 11 Y s 733 2761 m 7 X s 736 2736 m -16 Y s 733 2720 m 7 X s 749 2749 m -3 X s 746 2746 m 7
 Y s 762 2749 m 3 X s 765 2746 m 7 Y s 755 2756 m 11 Y s 752 2767 m 7 X s 755 2743 m -16 Y s 752 2727 m 7 X s 768 2732 m -3 X s 765 2729 m 7 Y s 781 2732 m 3 X s 784 2729 m 7 Y s 774 2739 m 13 Y s 771 2752 m 7 X s 774 2726 m -18 Y s 771 2708 m 7 X s
 787 2742 m -3 X s 784 2738 m 7 Y s 800 2742 m 3 X s 803 2738 m 7 Y s 794 2748 m 12 Y s 790 2760 m 7 X s 794 2735 m -16 Y s 790 2719 m 7 X s 806 2734 m -3 X s 803 2731 m 7 Y s 819 2734 m 3 X s 822 2731 m 7 Y s 813 2741 m 13 Y s 809 2754 m 7 X s 813
 2728 m -18 Y s 809 2710 m 7 X s 825 2751 m -3 X s 822 2748 m 6 Y s 838 2751 m 3 X s 841 2748 m 6 Y s 832 2758 m 11 Y s 828 2769 m 7 X s 832 2744 m -15 Y s 828 2729 m 7 X s 844 2752 m -3 X s 841 2749 m 7 Y s 857 2752 m 3 X s 860 2749 m 7 Y s 851 2759
 m 11 Y s 847 2770 m 7 X s 851 2746 m -15 Y s 847 2731 m 7 X s 863 2777 m -3 X s 860 2773 m 7 Y s 877 2777 m 2 X s 879 2773 m 7 Y s 870 2783 m 8 Y s 867 2791 m 6 X s 870 2770 m -12 Y s 867 2758 m 6 X s black 0.6 0 0 c 698 2759 m 19 11 d 19 -27 d 19 6
 d 19 -17 d 20 10 d 19 -8 d 19 17 d 19 1 d 19 25 d s 698 2759 717 2770 736 2743 755 2749 774 2732 794 2742 813 2734 832 2751 851 2752 870 2777 10 { m25} R black
 gsave  955 924 20 1995 C 163.04 2226 t 0 r /Times-Italic findfont 34.9514 sf 0 0 m (ATLAS Simulation Preliminary) show NC gr 
 gsave  955 924 20 1995 C 163.04 2181.08 t 0 r /Times-Italic findfont 34.9514 sf 0 0 m (Hough Transform 2D, scenario 2) show NC gr 
 gsave  955 924 20 1995 C 163.04 2134.49 t 0 r /Times-Italic findfont 34.9514 sf 0 0 m (20,000 single muons, no pile\255up) show NC gr  1 1 1 c 210 139 641 2133 bf black
 gsave  955 924 20 1995 C 771.945 2229.32 t 0 r /Helvetica findfont 26.6297 sf 0 0 m ( < 0.3) show NC gr 
 gsave  955 924 20 1995 C 756.972 2229.32 t 0 r /Symbol findfont 26.6297 sf 0 0 m (h) show NC gr 
 gsave  955 924 20 1995 C 692.089 2229.32 t 0 r /Helvetica findfont 26.6297 sf 0 0 m (0.1 < ) show NC gr  0.35 0.33 0.85 c 649 2237 m 36 X s 667 2237 m20 black
 gsave  955 924 20 1995 C 771.945 2161.11 t 0 r /Helvetica findfont 26.6297 sf 0 0 m ( < 0.9) show NC gr 
 gsave  955 924 20 1995 C 756.972 2161.11 t 0 r /Symbol findfont 26.6297 sf 0 0 m (h) show NC gr 
 gsave  955 924 20 1995 C 692.089 2161.11 t 0 r /Helvetica findfont 26.6297 sf 0 0 m (0.7 < ) show NC gr  0.6 0 0 c 649 2168 m 36 X s 667 2168 m25 black 1 1 1 c 955 924 1015 1995 bf black 1 1 1 c 764 739 1110 2087 bf black 764 739 1110 2087 bl 1 1 1
 c 764 739 1110 2087 bf black 764 739 1110 2087 bl 1110 2087 m 764 X s 1174 2109 m -22 Y s 1206 2098 m -11 Y s 1238 2098 m -11 Y s 1269 2098 m -11 Y s 1301 2098 m -11 Y s 1333 2109 m -22 Y s 1365 2098 m -11 Y s 1397 2098 m -11 Y s 1429 2098 m -11 Y s
 1460 2098 m -11 Y s 1492 2109 m -22 Y s 1524 2098 m -11 Y s 1556 2098 m -11 Y s 1588 2098 m -11 Y s 1620 2098 m -11 Y s 1651 2109 m -22 Y s 1683 2098 m -11 Y s 1715 2098 m -11 Y s 1747 2098 m -11 Y s 1779 2098 m -11 Y s 1811 2109 m -22 Y s 1174 2109
 m -22 Y s 1142 2098 m -11 Y s 1110 2098 m -11 Y s 1811 2109 m -22 Y s 1843 2098 m -11 Y s 1874 2098 m -11 Y s
 gsave  955 924 1015 1995 C 1152.93 2057.97 t 0 r /Helvetica findfont 29.9584 sf 0 0 m (0.3) show NC gr 
 gsave  955 924 1015 1995 C 1304.32 2057.97 t 0 r /Helvetica findfont 29.9584 sf 0 0 m (0.35) show NC gr 
 gsave  955 924 1015 1995 C 1472.35 2057.97 t 0 r /Helvetica findfont 29.9584 sf 0 0 m (0.4) show NC gr 
 gsave  955 924 1015 1995 C 1622.08 2057.97 t 0 r /Helvetica findfont 29.9584 sf 0 0 m (0.45) show NC gr 
 gsave  955 924 1015 1995 C 1790.11 2057.97 t 0 r /Helvetica findfont 29.9584 sf 0 0 m (0.5) show NC gr 
 gsave  955 924 1015 1995 C 1851.67 2003.06 t 0 r /Symbol findfont 43.2732 sf 0 0 m (f) show NC gr 
 gsave  955 924 1015 1995 C 1464.03 2003.06 t 0 r /Helvetica findfont 43.2732 sf 0 0 m (true azimuthal angle ) show NC gr  1110 2087 m 739 Y s 1133 2087 m -23 X s 1122 2102 m -12 X s 1122 2117 m -12 X s 1122 2132 m -12 X s 1122 2146 m -12 X s 1133
 2161 m -23 X s 1122 2176 m -12 X s 1122 2191 m -12 X s 1122 2205 m -12 X s 1122 2220 m -12 X s 1133 2235 m -23 X s 1122 2250 m -12 X s 1122 2265 m -12 X s 1122 2279 m -12 X s 1122 2294 m -12 X s 1133 2309 m -23 X s 1122 2324 m -12 X s 1122 2338 m
 -12 X s 1122 2353 m -12 X s 1122 2368 m -12 X s 1133 2383 m -23 X s 1122 2398 m -12 X s 1122 2412 m -12 X s 1122 2427 m -12 X s 1122 2442 m -12 X s 1133 2457 m -23 X s 1122 2471 m -12 X s 1122 2486 m -12 X s 1122 2501 m -12 X s 1122 2516 m -12 X s
 1133 2531 m -23 X s 1122 2545 m -12 X s 1122 2560 m -12 X s 1122 2575 m -12 X s 1122 2590 m -12 X s 1133 2604 m -23 X s 1122 2619 m -12 X s 1122 2634 m -12 X s 1122 2649 m -12 X s 1122 2664 m -12 X s 1133 2678 m -23 X s 1122 2693 m -12 X s 1122 2708
 m -12 X s 1122 2723 m -12 X s 1122 2738 m -12 X s 1133 2752 m -23 X s 1122 2767 m -12 X s 1122 2782 m -12 X s 1122 2797 m -12 X s 1122 2811 m -12 X s 1133 2826 m -23 X s
 gsave  955 924 1015 1995 C 1064.75 2076.27 t 0 r /Helvetica findfont 29.9584 sf 0 0 m (0.9) show NC gr 
 gsave  955 924 1015 1995 C 1053.11 2149.47 t 0 r /Helvetica findfont 29.9584 sf 0 0 m (0.91) show NC gr 
 gsave  955 924 1015 1995 C 1048.11 2224.33 t 0 r /Helvetica findfont 29.9584 sf 0 0 m (0.92) show NC gr 
 gsave  955 924 1015 1995 C 1048.11 2297.53 t 0 r /Helvetica findfont 29.9584 sf 0 0 m (0.93) show NC gr 
 gsave  955 924 1015 1995 C 1048.11 2372.4 t 0 r /Helvetica findfont 29.9584 sf 0 0 m (0.94) show NC gr 
 gsave  955 924 1015 1995 C 1048.11 2445.6 t 0 r /Helvetica findfont 29.9584 sf 0 0 m (0.95) show NC gr 
 gsave  955 924 1015 1995 C 1048.11 2520.47 t 0 r /Helvetica findfont 29.9584 sf 0 0 m (0.96) show NC gr 
 gsave  955 924 1015 1995 C 1048.11 2593.67 t 0 r /Helvetica findfont 29.9584 sf 0 0 m (0.97) show NC gr 
 gsave  955 924 1015 1995 C 1048.11 2666.87 t 0 r /Helvetica findfont 29.9584 sf 0 0 m (0.98) show NC gr 
 gsave  955 924 1015 1995 C 1048.11 2741.74 t 0 r /Helvetica findfont 29.9584 sf 0 0 m (0.99) show NC gr 
 gsave  955 924 1015 1995 C 1093.03 2814.94 t 0 r /Helvetica findfont 29.9584 sf 0 0 m (1) show NC gr 
 gsave  955 924 1015 1995 C 1054.77 2648.57 t 90 r /Helvetica findfont 43.2732 sf 0 0 m (efficiency) show NC gr  0.35 0.33 0.85 c black 0.35 0.33 0.85 c 1206 2710 m 63 5 d 64 9 d 64 -7 d 63 -23 d 64 -13 d 64 38 d 63 10 d 64 -2 d 64 -24 d s 1206 2710
 1269 2715 1333 2724 1397 2717 1460 2694 1524 2681 1588 2719 1651 2729 1715 2727 1779 2703 10 { m20} R 1199 2710 m -25 X s 1174 2707 m 7 Y s 1212 2710 m 26 X s 1238 2707 m 7 Y s 1206 2717 m 15 Y s 1202 2732 m 7 X s 1206 2704 m -20 Y s 1202 2684 m 7 X
 s 1263 2715 m -25 X s 1238 2712 m 7 Y s 1276 2715 m 25 X s 1301 2712 m 7 Y s 1269 2722 m 15 Y s 1266 2737 m 7 X s 1269 2709 m -20 Y s 1266 2689 m 7 X s 1326 2724 m -25 X s 1301 2721 m 6 Y s 1340 2724 m 25 X s 1365 2721 m 6 Y s 1333 2730 m 14 Y s
 1330 2744 m 6 X s 1333 2717 m -18 Y s 1330 2699 m 6 X s 1390 2717 m -25 X s 1365 2714 m 7 Y s 1403 2717 m 26 X s 1429 2714 m 7 Y s 1397 2724 m 15 Y s 1393 2739 m 7 X s 1397 2711 m -19 Y s 1393 2692 m 7 X s 1454 2694 m -25 X s 1429 2691 m 6 Y s 1467
 2694 m 25 X s 1492 2691 m 6 Y s 1460 2701 m 17 Y s 1457 2718 m 7 X s 1460 2687 m -22 Y s 1457 2665 m 7 X s 1517 2681 m -25 X s 1492 2678 m 7 Y s 1531 2681 m 25 X s 1556 2678 m 7 Y s 1524 2688 m 18 Y s 1521 2706 m 6 X s 1524 2675 m -22 Y s 1521 2653
 m 6 X s 1581 2719 m -25 X s 1556 2715 m 7 Y s 1594 2719 m 26 X s 1620 2715 m 7 Y s 1588 2725 m 15 Y s 1584 2740 m 7 X s 1588 2712 m -18 Y s 1584 2694 m 7 X s 1645 2729 m -25 X s 1620 2726 m 6 Y s 1658 2729 m 25 X s 1683 2726 m 6 Y s 1651 2736 m 13 Y
 s 1648 2749 m 7 X s 1651 2722 m -18 Y s 1648 2704 m 7 X s 1709 2727 m -26 X s 1683 2723 m 7 Y s 1722 2727 m 25 X s 1747 2723 m 7 Y s 1715 2733 m 14 Y s 1712 2747 m 6 X s 1715 2720 m -18 Y s 1712 2702 m 6 X s 1772 2703 m -25 X s 1747 2699 m 7 Y s
 1785 2703 m 26 X s 1811 2699 m 7 Y s 1779 2709 m 16 Y s 1776 2725 m 6 X s 1779 2696 m -20 Y s 1776 2676 m 6 X s 0.6 0 0 c 1199 2603 m -25 X s 1174 2600 m 7 Y s 1212 2603 m 26 X s 1238 2600 m 7 Y s 1206 2610 m 24 Y s 1202 2634 m 7 X s 1206 2597 m -28
 Y s 1202 2569 m 7 X s 1263 2721 m -25 X s 1238 2718 m 6 Y s 1276 2721 m 25 X s 1301 2718 m 6 Y s 1269 2728 m 14 Y s 1266 2742 m 7 X s 1269 2714 m -18 Y s 1266 2696 m 7 X s 1326 2752 m -25 X s 1301 2748 m 7 Y s 1340 2752 m 25 X s 1365 2748 m 7 Y s
 1333 2758 m 11 Y s 1330 2769 m 6 X s 1333 2745 m -15 Y s 1330 2730 m 6 X s 1390 2756 m -25 X s 1365 2753 m 6 Y s 1403 2756 m 26 X s 1429 2753 m 6 Y s 1397 2763 m 10 Y s 1393 2773 m 7 X s 1397 2749 m -14 Y s 1393 2735 m 7 X s 1454 2778 m -25 X s 1429
 2775 m 6 Y s 1467 2778 m 25 X s 1492 2775 m 6 Y s 1460 2785 m 7 Y s 1457 2792 m 7 X s 1460 2771 m -12 Y s 1457 2759 m 7 X s 1517 2775 m -25 X s 1492 2772 m 7 Y s 1531 2775 m 25 X s 1556 2772 m 7 Y s 1524 2782 m 8 Y s 1521 2790 m 6 X s 1524 2769 m
 -13 Y s 1521 2756 m 6 X s 1581 2784 m -25 X s 1556 2781 m 7 Y s 1594 2784 m 26 X s 1620 2781 m 7 Y s 1588 2791 m 6 Y s 1584 2797 m 7 X s 1588 2778 m -12 Y s 1584 2766 m 7 X s 1645 2767 m -25 X s 1620 2764 m 7 Y s 1658 2767 m 25 X s 1683 2764 m 7 Y s
 1651 2774 m 9 Y s 1648 2783 m 7 X s 1651 2761 m -14 Y s 1648 2747 m 7 X s 1709 2797 m -26 X s 1683 2794 m 6 Y s 1722 2797 m 25 X s 1747 2794 m 6 Y s 1715 2804 m 4 Y s 1712 2808 m 6 X s 1715 2790 m -9 Y s 1712 2781 m 6 X s 1772 2777 m -25 X s 1747
 2773 m 7 Y s 1785 2777 m 26 X s 1811 2773 m 7 Y s 1779 2783 m 8 Y s 1776 2791 m 6 X s 1779 2770 m -12 Y s 1776 2758 m 6 X s black 0.6 0 0 c 1206 2603 m 63 118 d 64 31 d 64 4 d 63 22 d 64 -3 d 64 9 d 63 -17 d 64 30 d 64 -20 d s 1206 2603 1269 2721
 1333 2752 1397 2756 1460 2778 1524 2775 1588 2784 1651 2767 1715 2797 1779 2777 10 { m25} R black
 gsave  955 924 1015 1995 C 1157.92 2226 t 0 r /Times-Italic findfont 34.9514 sf 0 0 m (ATLAS Simulation Preliminary) show NC gr 
 gsave  955 924 1015 1995 C 1157.92 2181.08 t 0 r /Times-Italic findfont 34.9514 sf 0 0 m (Hough Transform 2D, scenario 2) show NC gr 
 gsave  955 924 1015 1995 C 1157.92 2134.49 t 0 r /Times-Italic findfont 34.9514 sf 0 0 m (20,000 single muons, no pile\255up) show NC gr  1 1 1 c 210 139 1636 2133 bf black
 gsave  955 924 1015 1995 C 1766.82 2229.32 t 0 r /Helvetica findfont 26.6297 sf 0 0 m ( < 0.3) show NC gr 
 gsave  955 924 1015 1995 C 1751.85 2229.32 t 0 r /Symbol findfont 26.6297 sf 0 0 m (h) show NC gr 
 gsave  955 924 1015 1995 C 1686.97 2229.32 t 0 r /Helvetica findfont 26.6297 sf 0 0 m (0.1 < ) show NC gr  0.35 0.33 0.85 c 1643 2237 m 37 X s 1662 2237 m20 black
 gsave  955 924 1015 1995 C 1766.82 2161.11 t 0 r /Helvetica findfont 26.6297 sf 0 0 m ( < 0.9) show NC gr 
 gsave  955 924 1015 1995 C 1751.85 2161.11 t 0 r /Symbol findfont 26.6297 sf 0 0 m (h) show NC gr 
 gsave  955 924 1015 1995 C 1686.97 2161.11 t 0 r /Helvetica findfont 26.6297 sf 0 0 m (0.7 < ) show NC gr  0.6 0 0 c 1643 2168 m 37 X s 1662 2168 m25 black 1 1 1 c 955 924 20 1012 bf black 1 1 1 c 764 739 115 1105 bf black 764 739 115 1105 bl 1 1 1
 c 764 739 115 1105 bf black 764 739 115 1105 bl 115 1105 m 764 X s 179 1127 m -22 Y s 195 1116 m -11 Y s 211 1116 m -11 Y s 227 1116 m -11 Y s 243 1116 m -11 Y s 259 1127 m -22 Y s 275 1116 m -11 Y s 291 1116 m -11 Y s 306 1116 m -11 Y s 322 1116 m
 -11 Y s 338 1127 m -22 Y s 354 1116 m -11 Y s 370 1116 m -11 Y s 386 1116 m -11 Y s 402 1116 m -11 Y s 418 1127 m -22 Y s 434 1116 m -11 Y s 450 1116 m -11 Y s 466 1116 m -11 Y s 482 1116 m -11 Y s 497 1127 m -22 Y s 513 1116 m -11 Y s 529 1116 m
 -11 Y s 545 1116 m -11 Y s 561 1116 m -11 Y s 577 1127 m -22 Y s 593 1116 m -11 Y s 609 1116 m -11 Y s 625 1116 m -11 Y s 641 1116 m -11 Y s 657 1127 m -22 Y s 673 1116 m -11 Y s 688 1116 m -11 Y s 704 1116 m -11 Y s 720 1116 m -11 Y s 736 1127 m
 -22 Y s 752 1116 m -11 Y s 768 1116 m -11 Y s 784 1116 m -11 Y s 800 1116 m -11 Y s 816 1127 m -22 Y s 179 1127 m -22 Y s 163 1116 m -11 Y s 147 1116 m -11 Y s 131 1116 m -11 Y s 816 1127 m -22 Y s 832 1116 m -11 Y s 848 1116 m -11 Y s 864 1116 m
 -11 Y s
 gsave  955 924 20 1012 C 176.35 1074.73 t 0 r /Helvetica findfont 29.9584 sf 0 0 m (2) show NC gr 
 gsave  955 924 20 1012 C 161.376 1074.73 t 0 r /Symbol findfont 29.9584 sf 0 0 m (-) show NC gr 
 gsave  955 924 20 1012 C 244.56 1074.73 t 0 r /Helvetica findfont 29.9584 sf 0 0 m (1.5) show NC gr 
 gsave  955 924 20 1012 C 229.587 1074.73 t 0 r /Symbol findfont 29.9584 sf 0 0 m (-) show NC gr 
 gsave  955 924 20 1012 C 339.39 1074.73 t 0 r /Helvetica findfont 29.9584 sf 0 0 m (1) show NC gr 
 gsave  955 924 20 1012 C 322.753 1074.73 t 0 r /Symbol findfont 29.9584 sf 0 0 m (-) show NC gr 
 gsave  955 924 20 1012 C 404.273 1074.73 t 0 r /Helvetica findfont 29.9584 sf 0 0 m (0.5) show NC gr 
 gsave  955 924 20 1012 C 389.3 1074.73 t 0 r /Symbol findfont 29.9584 sf 0 0 m (-) show NC gr 
 gsave  955 924 20 1012 C 489.12 1074.73 t 0 r /Helvetica findfont 29.9584 sf 0 0 m (0) show NC gr 
 gsave  955 924 20 1012 C 555.667 1074.73 t 0 r /Helvetica findfont 29.9584 sf 0 0 m (0.5) show NC gr 
 gsave  955 924 20 1012 C 648.833 1074.73 t 0 r /Helvetica findfont 29.9584 sf 0 0 m (1) show NC gr 
 gsave  955 924 20 1012 C 715.38 1074.73 t 0 r /Helvetica findfont 29.9584 sf 0 0 m (1.5) show NC gr 
 gsave  955 924 20 1012 C 806.882 1074.73 t 0 r /Helvetica findfont 29.9584 sf 0 0 m (2) show NC gr 
 gsave  955 924 20 1012 C 786.918 1034.81 t 0 r /Helvetica findfont 38.2801 sf 0 0 m ( [mm]) show NC gr 
 gsave  955 924 20 1012 C 771.945 1013.18 t 0 r /Helvetica findfont 26.6297 sf 0 0 m (0) show NC gr 
 gsave  955 924 20 1012 C 191.323 1034.81 t 0 r /Helvetica findfont 38.2801 sf 0 0 m (true transverse impact parameter d) show NC gr  115 1105 m 739 Y s 138 1105 m -23 X s 127 1119 m -12 X s 127 1134 m -12 X s 127 1149 m -12 X s 127 1164 m -12 X s
 138 1178 m -23 X s 127 1193 m -12 X s 127 1208 m -12 X s 127 1223 m -12 X s 127 1238 m -12 X s 138 1252 m -23 X s 127 1267 m -12 X s 127 1282 m -12 X s 127 1297 m -12 X s 127 1311 m -12 X s 138 1326 m -23 X s 127 1341 m -12 X s 127 1356 m -12 X s
 127 1371 m -12 X s 127 1385 m -12 X s 138 1400 m -23 X s 127 1415 m -12 X s 127 1430 m -12 X s 127 1444 m -12 X s 127 1459 m -12 X s 138 1474 m -23 X s 127 1489 m -12 X s 127 1504 m -12 X s 127 1518 m -12 X s 127 1533 m -12 X s 138 1548 m -23 X s
 127 1563 m -12 X s 127 1577 m -12 X s 127 1592 m -12 X s 127 1607 m -12 X s 138 1622 m -23 X s 127 1637 m -12 X s 127 1651 m -12 X s 127 1666 m -12 X s 127 1681 m -12 X s 138 1696 m -23 X s 127 1710 m -12 X s 127 1725 m -12 X s 127 1740 m -12 X s
 127 1755 m -12 X s 138 1770 m -23 X s 127 1784 m -12 X s 127 1799 m -12 X s 127 1814 m -12 X s 127 1829 m -12 X s 138 1844 m -23 X s
 gsave  955 924 20 1012 C 69.8743 1093.03 t 0 r /Helvetica findfont 29.9584 sf 0 0 m (0.9) show NC gr 
 gsave  955 924 20 1012 C 58.2286 1167.9 t 0 r /Helvetica findfont 29.9584 sf 0 0 m (0.91) show NC gr 
 gsave  955 924 20 1012 C 53.2376 1241.1 t 0 r /Helvetica findfont 29.9584 sf 0 0 m (0.92) show NC gr 
 gsave  955 924 20 1012 C 53.2376 1315.97 t 0 r /Helvetica findfont 29.9584 sf 0 0 m (0.93) show NC gr 
 gsave  955 924 20 1012 C 53.2376 1389.17 t 0 r /Helvetica findfont 29.9584 sf 0 0 m (0.94) show NC gr 
 gsave  955 924 20 1012 C 53.2376 1462.37 t 0 r /Helvetica findfont 29.9584 sf 0 0 m (0.95) show NC gr 
 gsave  955 924 20 1012 C 53.2376 1537.24 t 0 r /Helvetica findfont 29.9584 sf 0 0 m (0.96) show NC gr 
 gsave  955 924 20 1012 C 53.2376 1610.44 t 0 r /Helvetica findfont 29.9584 sf 0 0 m (0.97) show NC gr 
 gsave  955 924 20 1012 C 53.2376 1685.3 t 0 r /Helvetica findfont 29.9584 sf 0 0 m (0.98) show NC gr 
 gsave  955 924 20 1012 C 53.2376 1758.5 t 0 r /Helvetica findfont 29.9584 sf 0 0 m (0.99) show NC gr 
 gsave  955 924 20 1012 C 98.1568 1833.37 t 0 r /Helvetica findfont 29.9584 sf 0 0 m (1) show NC gr 
 gsave  955 924 20 1012 C 58.2286 1667 t 90 r /Helvetica findfont 43.2732 sf 0 0 m (efficiency) show NC gr  0.35 0.33 0.85 c black 0.35 0.33 0.85 c 211 1669 m 64 85 d 63 -34 d 64 9 d 64 20 d 63 15 d 64 -17 d 64 -13 d 63 -8 d 64 -24 d s 211 1669 275
 1754 338 1720 402 1729 466 1749 529 1764 593 1747 657 1734 720 1726 784 1702 10 { m20} R 204 1669 m -25 X s 179 1666 m 6 Y s 218 1669 m 25 X s 243 1666 m 6 Y s 211 1676 m 20 Y s 208 1696 m 6 X s 211 1662 m -24 Y s 208 1638 m 6 X s 268 1754 m -25 X s
 243 1750 m 7 Y s 281 1754 m 25 X s 306 1750 m 7 Y s 275 1760 m 13 Y s 271 1773 m 7 X s 275 1747 m -17 Y s 271 1730 m 7 X s 332 1720 m -26 X s 306 1717 m 7 Y s 345 1720 m 25 X s 370 1717 m 7 Y s 338 1727 m 16 Y s 335 1743 m 7 X s 338 1714 m -21 Y s
 335 1693 m 7 X s 395 1729 m -25 X s 370 1725 m 7 Y s 409 1729 m 25 X s 434 1725 m 7 Y s 402 1735 m 15 Y s 399 1750 m 6 X s 402 1722 m -19 Y s 399 1703 m 6 X s 459 1749 m -25 X s 434 1745 m 7 Y s 472 1749 m 25 X s 497 1745 m 7 Y s 466 1755 m 14 Y s
 462 1769 m 7 X s 466 1742 m -18 Y s 462 1724 m 7 X s 523 1764 m -26 X s 497 1761 m 6 Y s 536 1764 m 25 X s 561 1761 m 6 Y s 529 1771 m 11 Y s 526 1782 m 7 X s 529 1757 m -16 Y s 526 1741 m 7 X s 586 1747 m -25 X s 561 1744 m 6 Y s 600 1747 m 25 X s
 625 1744 m 6 Y s 593 1754 m 13 Y s 590 1767 m 6 X s 593 1740 m -17 Y s 590 1723 m 6 X s 650 1734 m -25 X s 625 1731 m 6 Y s 663 1734 m 25 X s 688 1731 m 6 Y s 657 1740 m 15 Y s 653 1755 m 7 X s 657 1727 m -19 Y s 653 1708 m 7 X s 714 1726 m -26 X s
 688 1722 m 7 Y s 727 1726 m 25 X s 752 1722 m 7 Y s 720 1732 m 15 Y s 717 1747 m 7 X s 720 1719 m -19 Y s 717 1700 m 7 X s 777 1702 m -25 X s 752 1699 m 7 Y s 791 1702 m 25 X s 816 1699 m 7 Y s 784 1709 m 17 Y s 781 1726 m 6 X s 784 1696 m -22 Y s
 781 1674 m 6 X s 0.6 0 0 c 204 1730 m -25 X s 179 1727 m 6 Y s 218 1730 m 25 X s 243 1727 m 6 Y s 211 1737 m 15 Y s 208 1752 m 6 X s 211 1723 m -19 Y s 208 1704 m 6 X s 268 1796 m -25 X s 243 1793 m 7 Y s 281 1796 m 25 X s 306 1793 m 7 Y s 275 1803
 m 7 Y s 271 1810 m 7 X s 275 1790 m -13 Y s 271 1777 m 7 X s 332 1779 m -26 X s 306 1776 m 6 Y s 345 1779 m 25 X s 370 1776 m 6 Y s 338 1786 m 9 Y s 335 1795 m 7 X s 338 1772 m -14 Y s 335 1758 m 7 X s 395 1765 m -25 X s 370 1762 m 7 Y s 409 1765 m
 25 X s 434 1762 m 7 Y s 402 1772 m 11 Y s 399 1783 m 6 X s 402 1759 m -16 Y s 399 1743 m 6 X s 459 1791 m -25 X s 434 1788 m 7 Y s 472 1791 m 25 X s 497 1788 m 7 Y s 466 1798 m 8 Y s 462 1806 m 7 X s 466 1785 m -13 Y s 462 1772 m 7 X s 523 1781 m
 -26 X s 497 1777 m 7 Y s 536 1781 m 25 X s 561 1777 m 7 Y s 529 1787 m 10 Y s 526 1797 m 7 X s 529 1774 m -14 Y s 526 1760 m 7 X s 586 1769 m -25 X s 561 1765 m 7 Y s 600 1769 m 25 X s 625 1765 m 7 Y s 593 1775 m 11 Y s 590 1786 m 6 X s 593 1762 m
 -15 Y s 590 1747 m 6 X s 650 1781 m -25 X s 625 1777 m 7 Y s 663 1781 m 25 X s 688 1777 m 7 Y s 657 1787 m 10 Y s 653 1797 m 7 X s 657 1774 m -14 Y s 653 1760 m 7 X s 714 1739 m -26 X s 688 1736 m 6 Y s 727 1739 m 25 X s 752 1736 m 6 Y s 720 1746 m
 13 Y s 717 1759 m 7 X s 720 1732 m -18 Y s 717 1714 m 7 X s 777 1756 m -25 X s 752 1753 m 6 Y s 791 1756 m 25 X s 816 1753 m 6 Y s 784 1763 m 12 Y s 781 1775 m 6 X s 784 1749 m -16 Y s 781 1733 m 6 X s black 0.6 0 0 c 211 1730 m 64 66 d 63 -17 d 64
 -14 d 64 26 d 63 -10 d 64 -12 d 64 12 d 63 -42 d 64 17 d s 211 1730 275 1796 338 1779 402 1765 466 1791 529 1781 593 1769 657 1781 720 1739 784 1756 10 { m25} R black
 gsave  955 924 20 1012 C 163.04 1244.43 t 0 r /Times-Italic findfont 34.9514 sf 0 0 m (ATLAS Simulation Preliminary) show NC gr 
 gsave  955 924 20 1012 C 163.04 1197.85 t 0 r /Times-Italic findfont 34.9514 sf 0 0 m (Hough Transform 2D, scenario 2) show NC gr 
 gsave  955 924 20 1012 C 163.04 1151.26 t 0 r /Times-Italic findfont 34.9514 sf 0 0 m (20,000 single muons, no pile\255up) show NC gr  1 1 1 c 210 138 641 1151 bf black
 gsave  955 924 20 1012 C 771.945 1247.76 t 0 r /Helvetica findfont 26.6297 sf 0 0 m ( < 0.3) show NC gr 
 gsave  955 924 20 1012 C 756.972 1247.76 t 0 r /Symbol findfont 26.6297 sf 0 0 m (h) show NC gr 
 gsave  955 924 20 1012 C 692.089 1247.76 t 0 r /Helvetica findfont 26.6297 sf 0 0 m (0.1 < ) show NC gr  0.35 0.33 0.85 c 649 1255 m 36 X s 667 1255 m20 black
 gsave  955 924 20 1012 C 771.945 1177.88 t 0 r /Helvetica findfont 26.6297 sf 0 0 m ( < 0.9) show NC gr 
 gsave  955 924 20 1012 C 756.972 1177.88 t 0 r /Symbol findfont 26.6297 sf 0 0 m (h) show NC gr 
 gsave  955 924 20 1012 C 692.089 1177.88 t 0 r /Helvetica findfont 26.6297 sf 0 0 m (0.7 < ) show NC gr  0.6 0 0 c 649 1185 m 36 X s 667 1185 m25 black 1 1 1 c 955 924 1015 1012 bf black 1 1 1 c 764 739 1110 1105 bf black 764 739 1110 1105 bl 1 1 1
 c 764 739 1110 1105 bf black 764 739 1110 1105 bl 1110 1105 m 764 X s 1174 1127 m -22 Y s 1195 1116 m -11 Y s 1216 1116 m -11 Y s 1238 1116 m -11 Y s 1259 1116 m -11 Y s 1280 1127 m -22 Y s 1301 1116 m -11 Y s 1323 1116 m -11 Y s 1344 1116 m -11 Y s
 1365 1116 m -11 Y s 1386 1127 m -22 Y s 1407 1116 m -11 Y s 1429 1116 m -11 Y s 1450 1116 m -11 Y s 1471 1116 m -11 Y s 1492 1127 m -22 Y s 1514 1116 m -11 Y s 1535 1116 m -11 Y s 1556 1116 m -11 Y s 1577 1116 m -11 Y s 1598 1127 m -22 Y s 1620 1116
 m -11 Y s 1641 1116 m -11 Y s 1662 1116 m -11 Y s 1683 1116 m -11 Y s 1705 1127 m -22 Y s 1726 1116 m -11 Y s 1747 1116 m -11 Y s 1768 1116 m -11 Y s 1789 1116 m -11 Y s 1811 1127 m -22 Y s 1174 1127 m -22 Y s 1153 1116 m -11 Y s 1132 1116 m -11 Y s
 1811 1127 m -22 Y s 1832 1116 m -11 Y s 1853 1116 m -11 Y s
 gsave  955 924 1015 1012 C 1154.59 1074.73 t 0 r /Helvetica findfont 29.9584 sf 0 0 m (150) show NC gr 
 gsave  955 924 1015 1012 C 1139.62 1074.73 t 0 r /Symbol findfont 29.9584 sf 0 0 m (-) show NC gr 
 gsave  955 924 1015 1012 C 1261.07 1074.73 t 0 r /Helvetica findfont 29.9584 sf 0 0 m (100) show NC gr 
 gsave  955 924 1015 1012 C 1246.09 1074.73 t 0 r /Symbol findfont 29.9584 sf 0 0 m (-) show NC gr 
 gsave  955 924 1015 1012 C 1375.86 1074.73 t 0 r /Helvetica findfont 29.9584 sf 0 0 m (50) show NC gr 
 gsave  955 924 1015 1012 C 1360.89 1074.73 t 0 r /Symbol findfont 29.9584 sf 0 0 m (-) show NC gr 
 gsave  955 924 1015 1012 C 1484 1074.73 t 0 r /Helvetica findfont 29.9584 sf 0 0 m (0) show NC gr 
 gsave  955 924 1015 1012 C 1580.49 1074.73 t 0 r /Helvetica findfont 29.9584 sf 0 0 m (50) show NC gr 
 gsave  955 924 1015 1012 C 1678.65 1074.73 t 0 r /Helvetica findfont 29.9584 sf 0 0 m (100) show NC gr 
 gsave  955 924 1015 1012 C 1785.12 1074.73 t 0 r /Helvetica findfont 29.9584 sf 0 0 m (150) show NC gr 
 gsave  955 924 1015 1012 C 1781.8 1034.81 t 0 r /Helvetica findfont 38.2801 sf 0 0 m ( [mm]) show NC gr 
 gsave  955 924 1015 1012 C 1766.82 1013.18 t 0 r /Helvetica findfont 26.6297 sf 0 0 m (0) show NC gr 
 gsave  955 924 1015 1012 C 1174.55 1034.81 t 0 r /Helvetica findfont 38.2801 sf 0 0 m (true longitudinal impact parameter z) show NC gr  1110 1105 m 739 Y s 1133 1105 m -23 X s 1122 1119 m -12 X s 1122 1134 m -12 X s 1122 1149 m -12 X s 1122 1164 m
 -12 X s 1133 1178 m -23 X s 1122 1193 m -12 X s 1122 1208 m -12 X s 1122 1223 m -12 X s 1122 1238 m -12 X s 1133 1252 m -23 X s 1122 1267 m -12 X s 1122 1282 m -12 X s 1122 1297 m -12 X s 1122 1311 m -12 X s 1133 1326 m -23 X s 1122 1341 m -12 X s
 1122 1356 m -12 X s 1122 1371 m -12 X s 1122 1385 m -12 X s 1133 1400 m -23 X s 1122 1415 m -12 X s 1122 1430 m -12 X s 1122 1444 m -12 X s 1122 1459 m -12 X s 1133 1474 m -23 X s 1122 1489 m -12 X s 1122 1504 m -12 X s 1122 1518 m -12 X s 1122 1533
 m -12 X s 1133 1548 m -23 X s 1122 1563 m -12 X s 1122 1577 m -12 X s 1122 1592 m -12 X s 1122 1607 m -12 X s 1133 1622 m -23 X s 1122 1637 m -12 X s 1122 1651 m -12 X s 1122 1666 m -12 X s 1122 1681 m -12 X s 1133 1696 m -23 X s 1122 1710 m -12 X s
 1122 1725 m -12 X s 1122 1740 m -12 X s 1122 1755 m -12 X s 1133 1770 m -23 X s 1122 1784 m -12 X s 1122 1799 m -12 X s 1122 1814 m -12 X s 1122 1829 m -12 X s 1133 1844 m -23 X s
 gsave  955 924 1015 1012 C 1064.75 1093.03 t 0 r /Helvetica findfont 29.9584 sf 0 0 m (0.9) show NC gr 
 gsave  955 924 1015 1012 C 1053.11 1167.9 t 0 r /Helvetica findfont 29.9584 sf 0 0 m (0.91) show NC gr 
 gsave  955 924 1015 1012 C 1048.11 1241.1 t 0 r /Helvetica findfont 29.9584 sf 0 0 m (0.92) show NC gr 
 gsave  955 924 1015 1012 C 1048.11 1315.97 t 0 r /Helvetica findfont 29.9584 sf 0 0 m (0.93) show NC gr 
 gsave  955 924 1015 1012 C 1048.11 1389.17 t 0 r /Helvetica findfont 29.9584 sf 0 0 m (0.94) show NC gr 
 gsave  955 924 1015 1012 C 1048.11 1462.37 t 0 r /Helvetica findfont 29.9584 sf 0 0 m (0.95) show NC gr 
 gsave  955 924 1015 1012 C 1048.11 1537.24 t 0 r /Helvetica findfont 29.9584 sf 0 0 m (0.96) show NC gr 
 gsave  955 924 1015 1012 C 1048.11 1610.44 t 0 r /Helvetica findfont 29.9584 sf 0 0 m (0.97) show NC gr 
 gsave  955 924 1015 1012 C 1048.11 1685.3 t 0 r /Helvetica findfont 29.9584 sf 0 0 m (0.98) show NC gr 
 gsave  955 924 1015 1012 C 1048.11 1758.5 t 0 r /Helvetica findfont 29.9584 sf 0 0 m (0.99) show NC gr 
 gsave  955 924 1015 1012 C 1093.03 1833.37 t 0 r /Helvetica findfont 29.9584 sf 0 0 m (1) show NC gr 
 gsave  955 924 1015 1012 C 1054.77 1667 t 90 r /Helvetica findfont 43.2732 sf 0 0 m (efficiency) show NC gr  0.35 0.33 0.85 c black 0.35 0.33 0.85 c 1206 1703 m 63 40 d 64 3 d 64 -11 d 63 -40 d 64 80 d 64 -56 d 63 -16 d 64 13 d 64 56 d s 1206 1703
 1269 1743 1333 1746 1397 1735 1460 1695 1524 1775 1588 1719 1651 1703 1715 1716 1779 1772 10 { m20} R 1199 1703 m -25 X s 1174 1700 m 6 Y s 1212 1703 m 26 X s 1238 1700 m 6 Y s 1206 1710 m 22 Y s 1202 1732 m 7 X s 1206 1696 m -28 Y s 1202 1668 m 7 X
 s 1263 1743 m -25 X s 1238 1740 m 6 Y s 1276 1743 m 25 X s 1301 1740 m 6 Y s 1269 1750 m 14 Y s 1266 1764 m 7 X s 1269 1737 m -19 Y s 1266 1718 m 7 X s 1326 1746 m -25 X s 1301 1743 m 6 Y s 1340 1746 m 25 X s 1365 1743 m 6 Y s 1333 1753 m 12 Y s
 1330 1765 m 6 X s 1333 1740 m -17 Y s 1330 1723 m 6 X s 1390 1735 m -25 X s 1365 1732 m 7 Y s 1403 1735 m 26 X s 1429 1732 m 7 Y s 1397 1742 m 13 Y s 1393 1755 m 7 X s 1397 1729 m -18 Y s 1393 1711 m 7 X s 1454 1695 m -25 X s 1429 1692 m 7 Y s 1467
 1695 m 25 X s 1492 1692 m 7 Y s 1460 1702 m 16 Y s 1457 1718 m 7 X s 1460 1689 m -21 Y s 1457 1668 m 7 X s 1517 1775 m -25 X s 1492 1772 m 6 Y s 1531 1775 m 25 X s 1556 1772 m 6 Y s 1524 1782 m 8 Y s 1521 1790 m 6 X s 1524 1768 m -13 Y s 1521 1755 m
 6 X s 1581 1719 m -25 X s 1556 1716 m 6 Y s 1594 1719 m 26 X s 1620 1716 m 6 Y s 1588 1726 m 14 Y s 1584 1740 m 7 X s 1588 1712 m -18 Y s 1584 1694 m 7 X s 1645 1703 m -25 X s 1620 1699 m 7 Y s 1658 1703 m 25 X s 1683 1699 m 7 Y s 1651 1709 m 17 Y s
 1648 1726 m 7 X s 1651 1696 m -21 Y s 1648 1675 m 7 X s 1709 1716 m -26 X s 1683 1712 m 7 Y s 1722 1716 m 25 X s 1747 1712 m 7 Y s 1715 1722 m 17 Y s 1712 1739 m 6 X s 1715 1709 m -22 Y s 1712 1687 m 6 X s 1772 1772 m -25 X s 1747 1769 m 7 Y s 1785
 1772 m 26 X s 1811 1769 m 7 Y s 1779 1779 m 13 Y s 1776 1792 m 6 X s 1779 1766 m -21 Y s 1776 1745 m 6 X s 0.6 0 0 c 1199 1763 m -25 X s 1174 1760 m 6 Y s 1212 1763 m 26 X s 1238 1760 m 6 Y s 1206 1770 m 15 Y s 1202 1785 m 7 X s 1206 1756 m -22 Y s
 1202 1734 m 7 X s 1263 1781 m -25 X s 1238 1778 m 7 Y s 1276 1781 m 25 X s 1301 1778 m 7 Y s 1269 1788 m 10 Y s 1266 1798 m 7 X s 1269 1775 m -15 Y s 1266 1760 m 7 X s 1326 1797 m -25 X s 1301 1793 m 7 Y s 1340 1797 m 25 X s 1365 1793 m 7 Y s 1333
 1803 m 7 Y s 1330 1810 m 6 X s 1333 1790 m -11 Y s 1330 1779 m 6 X s 1390 1776 m -25 X s 1365 1773 m 6 Y s 1403 1776 m 26 X s 1429 1773 m 6 Y s 1397 1783 m 9 Y s 1393 1792 m 7 X s 1397 1769 m -13 Y s 1393 1756 m 7 X s 1454 1747 m -25 X s 1429 1743 m
 7 Y s 1467 1747 m 25 X s 1492 1743 m 7 Y s 1460 1753 m 13 Y s 1457 1766 m 7 X s 1460 1740 m -16 Y s 1457 1724 m 7 X s 1517 1768 m -25 X s 1492 1765 m 7 Y s 1531 1768 m 25 X s 1556 1765 m 7 Y s 1524 1775 m 10 Y s 1521 1785 m 6 X s 1524 1762 m -14 Y s
 1521 1748 m 6 X s 1581 1780 m -25 X s 1556 1777 m 6 Y s 1594 1780 m 26 X s 1620 1777 m 6 Y s 1588 1787 m 8 Y s 1584 1795 m 7 X s 1588 1773 m -12 Y s 1584 1761 m 7 X s 1645 1764 m -25 X s 1620 1761 m 7 Y s 1658 1764 m 25 X s 1683 1761 m 7 Y s 1651
 1771 m 11 Y s 1648 1782 m 7 X s 1651 1758 m -16 Y s 1648 1742 m 7 X s 1709 1764 m -26 X s 1683 1761 m 7 Y s 1722 1764 m 25 X s 1747 1761 m 7 Y s 1715 1771 m 12 Y s 1712 1783 m 6 X s 1715 1758 m -17 Y s 1712 1741 m 6 X s 1772 1763 m -25 X s 1747 1760
 m 6 Y s 1785 1763 m 26 X s 1811 1760 m 6 Y s 1779 1770 m 14 Y s 1776 1784 m 6 X s 1779 1756 m -21 Y s 1776 1735 m 6 X s black 0.6 0 0 c 1206 1763 m 63 18 d 64 16 d 64 -21 d 63 -29 d 64 21 d 64 12 d 63 -16 d 64 X 64 -1 d s 1206 1763 1269 1781 1333
 1797 1397 1776 1460 1747 1524 1768 1588 1780 1651 1764 1715 1764 1779 1763 10 { m25} R black
 gsave  955 924 1015 1012 C 1157.92 1244.43 t 0 r /Times-Italic findfont 34.9514 sf 0 0 m (ATLAS Simulation Preliminary) show NC gr 
 gsave  955 924 1015 1012 C 1157.92 1197.85 t 0 r /Times-Italic findfont 34.9514 sf 0 0 m (Hough Transform 2D, scenario 2) show NC gr 
 gsave  955 924 1015 1012 C 1157.92 1151.26 t 0 r /Times-Italic findfont 34.9514 sf 0 0 m (20,000 single muons, no pile\255up) show NC gr  1 1 1 c 210 138 1636 1151 bf black
 gsave  955 924 1015 1012 C 1766.82 1247.76 t 0 r /Helvetica findfont 26.6297 sf 0 0 m ( < 0.3) show NC gr 
 gsave  955 924 1015 1012 C 1751.85 1247.76 t 0 r /Symbol findfont 26.6297 sf 0 0 m (h) show NC gr 
 gsave  955 924 1015 1012 C 1686.97 1247.76 t 0 r /Helvetica findfont 26.6297 sf 0 0 m (0.1 < ) show NC gr  0.35 0.33 0.85 c 1643 1255 m 37 X s 1662 1255 m20 black
 gsave  955 924 1015 1012 C 1766.82 1177.88 t 0 r /Helvetica findfont 26.6297 sf 0 0 m ( < 0.9) show NC gr 
 gsave  955 924 1015 1012 C 1751.85 1177.88 t 0 r /Symbol findfont 26.6297 sf 0 0 m (h) show NC gr 
 gsave  955 924 1015 1012 C 1686.97 1177.88 t 0 r /Helvetica findfont 26.6297 sf 0 0 m (0.7 < ) show NC gr  0.6 0 0 c 1643 1185 m 37 X s 1662 1185 m25 black 1 1 1 c 955 924 20 29 bf black 1 1 1 c 764 739 115 122 bf black 764 739 115 122 bl 1 1 1 c
 764 739 115 122 bf black 764 739 115 122 bl 115 122 m 764 X s 115 144 m -22 Y s 131 133 m -11 Y s 146 133 m -11 Y s 161 133 m -11 Y s 177 133 m -11 Y s 192 144 m -22 Y s 207 133 m -11 Y s 222 133 m -11 Y s 238 133 m -11 Y s 253 133 m -11 Y s 268 144
 m -22 Y s 284 133 m -11 Y s 299 133 m -11 Y s 314 133 m -11 Y s 329 133 m -11 Y s 345 144 m -22 Y s 360 133 m -11 Y s 375 133 m -11 Y s 390 133 m -11 Y s 406 133 m -11 Y s 421 144 m -22 Y s 436 133 m -11 Y s 452 133 m -11 Y s 467 133 m -11 Y s 482
 133 m -11 Y s 497 144 m -22 Y s 513 133 m -11 Y s 528 133 m -11 Y s 543 133 m -11 Y s 559 133 m -11 Y s 574 144 m -22 Y s 589 133 m -11 Y s 604 133 m -11 Y s 620 133 m -11 Y s 635 133 m -11 Y s 650 144 m -22 Y s 666 133 m -11 Y s 681 133 m -11 Y s
 696 133 m -11 Y s 711 133 m -11 Y s 727 144 m -22 Y s 742 133 m -11 Y s 757 133 m -11 Y s 773 133 m -11 Y s 788 133 m -11 Y s 803 144 m -22 Y s 818 133 m -11 Y s 834 133 m -11 Y s 849 133 m -11 Y s 864 133 m -11 Y s 879 144 m -22 Y s
 gsave  955 924 20 29 C 106.475 91.5021 t 0 r /Helvetica findfont 29.9584 sf 0 0 m (0) show NC gr 
 gsave  955 924 20 29 C 183.004 91.5021 t 0 r /Helvetica findfont 29.9584 sf 0 0 m (5) show NC gr 
 gsave  955 924 20 29 C 251.215 91.5021 t 0 r /Helvetica findfont 29.9584 sf 0 0 m (10) show NC gr 
 gsave  955 924 20 29 C 327.744 91.5021 t 0 r /Helvetica findfont 29.9584 sf 0 0 m (15) show NC gr 
 gsave  955 924 20 29 C 404.273 91.5021 t 0 r /Helvetica findfont 29.9584 sf 0 0 m (20) show NC gr 
 gsave  955 924 20 29 C 480.802 91.5021 t 0 r /Helvetica findfont 29.9584 sf 0 0 m (25) show NC gr 
 gsave  955 924 20 29 C 555.667 91.5021 t 0 r /Helvetica findfont 29.9584 sf 0 0 m (30) show NC gr 
 gsave  955 924 20 29 C 632.196 91.5021 t 0 r /Helvetica findfont 29.9584 sf 0 0 m (35) show NC gr 
 gsave  955 924 20 29 C 708.725 91.5021 t 0 r /Helvetica findfont 29.9584 sf 0 0 m (40) show NC gr 
 gsave  955 924 20 29 C 785.254 91.5021 t 0 r /Helvetica findfont 29.9584 sf 0 0 m (45) show NC gr 
 gsave  955 924 20 29 C 861.783 91.5021 t 0 r /Helvetica findfont 29.9584 sf 0 0 m (50) show NC gr 
 gsave  955 924 20 29 C 761.963 41.5919 t 0 r /Helvetica findfont 43.2732 sf 0 0 m ( [GeV]) show NC gr 
 gsave  955 924 20 29 C 743.663 19.9641 t 0 r /Helvetica findfont 28.294 sf 0 0 m (T) show NC gr 
 gsave  955 924 20 29 C 427.564 41.5919 t 0 r /Helvetica findfont 43.2732 sf 0 0 m (true transverse p) show NC gr  115 122 m 739 Y s 138 122 m -23 X s 127 137 m -12 X s 127 151 m -12 X s 127 166 m -12 X s 127 181 m -12 X s 138 196 m -23 X s 127 211 m
 -12 X s 127 225 m -12 X s 127 240 m -12 X s 127 255 m -12 X s 138 270 m -23 X s 127 284 m -12 X s 127 299 m -12 X s 127 314 m -12 X s 127 329 m -12 X s 138 344 m -23 X s 127 358 m -12 X s 127 373 m -12 X s 127 388 m -12 X s 127 403 m -12 X s 138 417
 m -23 X s 127 432 m -12 X s 127 447 m -12 X s 127 462 m -12 X s 127 477 m -12 X s 138 491 m -23 X s 127 506 m -12 X s 127 521 m -12 X s 127 536 m -12 X s 127 550 m -12 X s 138 565 m -23 X s 127 580 m -12 X s 127 595 m -12 X s 127 610 m -12 X s 127
 624 m -12 X s 138 639 m -23 X s 127 654 m -12 X s 127 669 m -12 X s 127 683 m -12 X s 127 698 m -12 X s 138 713 m -23 X s 127 728 m -12 X s 127 743 m -12 X s 127 757 m -12 X s 127 772 m -12 X s 138 787 m -23 X s 127 802 m -12 X s 127 816 m -12 X s
 127 831 m -12 X s 127 846 m -12 X s 138 861 m -23 X s
 gsave  955 924 20 29 C 69.8743 111.466 t 0 r /Helvetica findfont 29.9584 sf 0 0 m (0.9) show NC gr 
 gsave  955 924 20 29 C 58.2286 184.668 t 0 r /Helvetica findfont 29.9584 sf 0 0 m (0.91) show NC gr 
 gsave  955 924 20 29 C 53.2376 259.533 t 0 r /Helvetica findfont 29.9584 sf 0 0 m (0.92) show NC gr 
 gsave  955 924 20 29 C 53.2376 332.735 t 0 r /Helvetica findfont 29.9584 sf 0 0 m (0.93) show NC gr 
 gsave  955 924 20 29 C 53.2376 405.937 t 0 r /Helvetica findfont 29.9584 sf 0 0 m (0.94) show NC gr 
 gsave  955 924 20 29 C 53.2376 480.802 t 0 r /Helvetica findfont 29.9584 sf 0 0 m (0.95) show NC gr 
 gsave  955 924 20 29 C 53.2376 554.004 t 0 r /Helvetica findfont 29.9584 sf 0 0 m (0.96) show NC gr 
 gsave  955 924 20 29 C 53.2376 628.869 t 0 r /Helvetica findfont 29.9584 sf 0 0 m (0.97) show NC gr 
 gsave  955 924 20 29 C 53.2376 702.071 t 0 r /Helvetica findfont 29.9584 sf 0 0 m (0.98) show NC gr 
 gsave  955 924 20 29 C 53.2376 776.936 t 0 r /Helvetica findfont 29.9584 sf 0 0 m (0.99) show NC gr 
 gsave  955 924 20 29 C 98.1568 850.138 t 0 r /Helvetica findfont 29.9584 sf 0 0 m (1) show NC gr 
 gsave  955 924 20 29 C 58.2286 683.77 t 90 r /Helvetica findfont 43.2732 sf 0 0 m (efficiency) show NC gr  0.35 0.33 0.85 c 147 742 m -32 X s 115 739 m 6 Y s 160 742 m 32 X s 192 739 m 6 Y s 154 749 m 1 Y s 150 750 m 7 X s 154 735 m -1 Y s 150 734 m
 7 X s 223 769 m -31 X s 192 765 m 7 Y s 237 769 m 31 X s 268 765 m 7 Y s 230 775 m 13 Y s 227 788 m 6 X s 230 762 m -17 Y s 227 745 m 6 X s 300 783 m -32 X s 268 779 m 7 Y s 313 783 m 32 X s 345 779 m 7 Y s 306 789 m 25 Y s 303 814 m 7 X s 306 776 m
 -39 Y s 303 737 m 7 X s 376 764 m -31 X s 345 761 m 6 Y s 389 764 m 32 X s 421 761 m 6 Y s 383 771 m 39 Y s 380 810 m 6 X s 383 757 m -69 Y s 380 688 m 6 X s 491 714 m -70 X s 421 710 m 7 Y s 504 714 m 70 X s 574 710 m 7 Y s 497 720 m 52 Y s 494 772
 m 7 X s 497 707 m -80 Y s 494 627 m 7 X s 644 810 m -70 X s 574 807 m 7 Y s 657 810 m 70 X s 727 807 m 7 Y s 650 817 m 35 Y s 647 852 m 7 X s 650 804 m -109 Y s 647 695 m 7 X s 796 861 m -69 X s 727 857 m 4 Y s 810 861 m 69 X s 879 857 m 4 Y s 803
 854 m -124 Y s 800 730 m 6 X s black 0.35 0.33 0.85 c 154 742 m 76 27 d 76 14 d 77 -19 d 114 -50 d 153 96 d 153 51 d 76 -12 d s 154 742 230 769 306 783 383 764 497 714 650 810 803 861 7 { m20} R 0.6 0 0 c 147 771 m -32 X s 115 768 m 7 Y s 160 771 m
 32 X s 192 768 m 7 Y s 154 778 m s 150 778 m 7 X s 154 765 m -1 Y s 150 764 m 7 X s 223 844 m -31 X s 192 841 m 7 Y s 237 844 m 31 X s 268 841 m 7 Y s 230 851 m 1 Y s 227 852 m 6 X s 230 838 m -7 Y s 227 831 m 6 X s 300 848 m -32 X s 268 845 m 6 Y s
 313 848 m 32 X s 345 845 m 6 Y s 306 855 m 4 Y s 303 859 m 7 X s 306 841 m -22 Y s 303 819 m 7 X s 376 836 m -31 X s 345 833 m 7 Y s 389 836 m 32 X s 421 833 m 7 Y s 383 843 m 14 Y s 380 857 m 6 X s 383 830 m -50 Y s 380 780 m 6 X s 491 812 m -70 X
 s 421 809 m 6 Y s 504 812 m 70 X s 574 809 m 6 Y s 497 819 m 25 Y s 494 844 m 7 X s 497 805 m -57 Y s 494 748 m 7 X s 644 861 m -70 X s 574 857 m 4 Y s 657 861 m 70 X s 727 857 m 4 Y s 650 854 m -85 Y s 647 769 m 7 X s 796 861 m -69 X s 727 857 m 4
 Y s 810 861 m 69 X s 879 857 m 4 Y s 803 854 m -129 Y s 800 725 m 6 X s black 0.6 0 0 c 154 771 m 76 73 d 76 4 d 77 -12 d 114 -24 d 153 49 d 229 X s 154 771 230 844 306 848 383 836 497 812 650 861 803 861 7 { m25} R black
 gsave  955 924 20 29 C 163.04 261.197 t 0 r /Times-Italic findfont 34.9514 sf 0 0 m (ATLAS Simulation Preliminary) show NC gr 
 gsave  955 924 20 29 C 163.04 214.614 t 0 r /Times-Italic findfont 34.9514 sf 0 0 m (Hough Transform 2D, scenario 2) show NC gr 
 gsave  955 924 20 29 C 163.04 169.695 t 0 r /Times-Italic findfont 34.9514 sf 0 0 m (20,000 single muons, no pile\255up) show NC gr  1 1 1 c 210 139 641 168 bf black
 gsave  955 924 20 29 C 771.945 264.524 t 0 r /Helvetica findfont 26.6297 sf 0 0 m ( < 0.3) show NC gr 
 gsave  955 924 20 29 C 756.972 264.524 t 0 r /Symbol findfont 26.6297 sf 0 0 m (h) show NC gr 
 gsave  955 924 20 29 C 692.089 264.524 t 0 r /Helvetica findfont 26.6297 sf 0 0 m (0.1 < ) show NC gr  0.35 0.33 0.85 c 649 272 m 36 X s 667 272 m20 black
 gsave  955 924 20 29 C 771.945 194.65 t 0 r /Helvetica findfont 26.6297 sf 0 0 m ( < 0.9) show NC gr 
 gsave  955 924 20 29 C 756.972 194.65 t 0 r /Symbol findfont 26.6297 sf 0 0 m (h) show NC gr 
 gsave  955 924 20 29 C 692.089 194.65 t 0 r /Helvetica findfont 26.6297 sf 0 0 m (0.7 < ) show NC gr  0.6 0 0 c 649 203 m 36 X s 667 203 m25 black 1 1 1 c 955 924 1015 29 bf black 1 1 1 c 764 739 1110 122 bf black 764 739 1110 122 bl 1 1 1 c 764 739
 1110 122 bf black 764 739 1110 122 bl 1110 122 m 764 X s 1118 133 m -11 Y s 1133 133 m -11 Y s 1146 144 m -22 Y s
 gsave  955 924 1015 29 C 1139.62 81.5201 t 0 r /Helvetica findfont 29.9584 sf 0 0 m (1) show NC gr  1233 133 m -11 Y s 1284 133 m -11 Y s 1320 133 m -11 Y s 1348 133 m -11 Y s 1371 133 m -11 Y s 1391 133 m -11 Y s 1407 133 m -11 Y s 1422 133 m -11 Y
 s 1435 144 m -22 Y s
 gsave  955 924 1015 29 C 1417.45 81.5201 t 0 r /Helvetica findfont 29.9584 sf 0 0 m (10) show NC gr  1522 133 m -11 Y s 1573 133 m -11 Y s 1609 133 m -11 Y s 1637 133 m -11 Y s 1660 133 m -11 Y s 1680 133 m -11 Y s 1696 133 m -11 Y s 1711 133 m -11
 Y s 1725 144 m -22 Y s
 gsave  955 924 1015 29 C 1733.55 94.8295 t 0 r /Helvetica findfont 19.9722 sf 0 0 m (2) show NC gr 
 gsave  955 924 1015 29 C 1700.28 81.5201 t 0 r /Helvetica findfont 29.9584 sf 0 0 m (10) show NC gr  1812 133 m -11 Y s 1862 133 m -11 Y s
 gsave  955 924 1015 29 C 1770.15 51.5739 t 0 r /Helvetica findfont 38.2801 sf 0 0 m ( [GeV]) show NC gr 
 gsave  955 924 1015 29 C 1753.51 29.9461 t 0 r /Helvetica findfont 26.6297 sf 0 0 m (T) show NC gr 
 gsave  955 924 1015 29 C 1474.02 51.5739 t 0 r /Helvetica findfont 38.2801 sf 0 0 m (true transverse p) show NC gr  1110 122 m 739 Y s 1133 122 m -23 X s 1122 137 m -12 X s 1122 151 m -12 X s 1122 166 m -12 X s 1122 181 m -12 X s 1133 196 m -23 X s
 1122 211 m -12 X s 1122 225 m -12 X s 1122 240 m -12 X s 1122 255 m -12 X s 1133 270 m -23 X s 1122 284 m -12 X s 1122 299 m -12 X s 1122 314 m -12 X s 1122 329 m -12 X s 1133 344 m -23 X s 1122 358 m -12 X s 1122 373 m -12 X s 1122 388 m -12 X s
 1122 403 m -12 X s 1133 417 m -23 X s 1122 432 m -12 X s 1122 447 m -12 X s 1122 462 m -12 X s 1122 477 m -12 X s 1133 491 m -23 X s 1122 506 m -12 X s 1122 521 m -12 X s 1122 536 m -12 X s 1122 550 m -12 X s 1133 565 m -23 X s 1122 580 m -12 X s
 1122 595 m -12 X s 1122 610 m -12 X s 1122 624 m -12 X s 1133 639 m -23 X s 1122 654 m -12 X s 1122 669 m -12 X s 1122 683 m -12 X s 1122 698 m -12 X s 1133 713 m -23 X s 1122 728 m -12 X s 1122 743 m -12 X s 1122 757 m -12 X s 1122 772 m -12 X s
 1133 787 m -23 X s 1122 802 m -12 X s 1122 816 m -12 X s 1122 831 m -12 X s 1122 846 m -12 X s 1133 861 m -23 X s
 gsave  955 924 1015 29 C 1064.75 111.466 t 0 r /Helvetica findfont 29.9584 sf 0 0 m (0.9) show NC gr 
 gsave  955 924 1015 29 C 1053.11 184.668 t 0 r /Helvetica findfont 29.9584 sf 0 0 m (0.91) show NC gr 
 gsave  955 924 1015 29 C 1048.11 259.533 t 0 r /Helvetica findfont 29.9584 sf 0 0 m (0.92) show NC gr 
 gsave  955 924 1015 29 C 1048.11 332.735 t 0 r /Helvetica findfont 29.9584 sf 0 0 m (0.93) show NC gr 
 gsave  955 924 1015 29 C 1048.11 405.937 t 0 r /Helvetica findfont 29.9584 sf 0 0 m (0.94) show NC gr 
 gsave  955 924 1015 29 C 1048.11 480.802 t 0 r /Helvetica findfont 29.9584 sf 0 0 m (0.95) show NC gr 
 gsave  955 924 1015 29 C 1048.11 554.004 t 0 r /Helvetica findfont 29.9584 sf 0 0 m (0.96) show NC gr 
 gsave  955 924 1015 29 C 1048.11 628.869 t 0 r /Helvetica findfont 29.9584 sf 0 0 m (0.97) show NC gr 
 gsave  955 924 1015 29 C 1048.11 702.071 t 0 r /Helvetica findfont 29.9584 sf 0 0 m (0.98) show NC gr 
 gsave  955 924 1015 29 C 1048.11 776.936 t 0 r /Helvetica findfont 29.9584 sf 0 0 m (0.99) show NC gr 
 gsave  955 924 1015 29 C 1093.03 850.138 t 0 r /Helvetica findfont 29.9584 sf 0 0 m (1) show NC gr 
 gsave  955 924 1015 29 C 1054.77 683.77 t 90 r /Helvetica findfont 43.2732 sf 0 0 m (efficiency) show NC gr  0.35 0.33 0.85 c black 0.35 0.33 0.85 c 1261 742 m 138 27 d 64 14 d 43 -19 d 44 -50 d 43 96 d 31 51 d 64 -74 d 87 -244 d 65 318 d s 1261 742
 1399 769 1463 783 1506 764 1550 714 1593 810 1624 861 1688 787 1775 543 1840 861 10 { m20} R 1255 742 m -145 X s 1110 739 m 6 Y s 1268 742 m 80 X s 1348 739 m 6 Y s 1261 749 m 1 Y s 1258 750 m 7 X s 1261 735 m -1 Y s 1258 734 m 7 X s 1393 769 m -45
 X s 1348 765 m 7 Y s 1406 769 m 29 X s 1435 765 m 7 Y s 1399 775 m 13 Y s 1396 788 m 7 X s 1399 762 m -17 Y s 1396 745 m 7 X s 1457 783 m -22 X s 1435 779 m 7 Y s 1470 783 m 16 X s 1486 779 m 7 Y s 1463 789 m 25 Y s 1460 814 m 7 X s 1463 776 m -39 Y
 s 1460 737 m 7 X s 1499 764 m -13 X s 1486 761 m 6 Y s 1512 764 m 10 X s 1522 761 m 6 Y s 1506 771 m 39 Y s 1502 810 m 7 X s 1506 757 m -69 Y s 1502 688 m 7 X s 1544 714 m -22 X s 1522 710 m 7 Y s 1557 714 m 16 X s 1573 710 m 7 Y s 1550 720 m 52 Y s
 1547 772 m 7 X s 1550 707 m -80 Y s 1547 627 m 7 X s 1586 810 m -13 X s 1573 807 m 7 Y s 1599 810 m 10 X s 1609 807 m 7 Y s 1593 817 m 35 Y s 1589 852 m 7 X s 1593 804 m -109 Y s 1589 695 m 7 X s 1618 861 m -9 X s 1609 857 m 4 Y s 1631 861 m 6 X s
 1637 857 m 4 Y s 1624 854 m -124 Y s 1621 730 m 7 X s 1682 787 m -45 X s 1637 784 m 6 Y s 1695 787 m 30 X s 1725 784 m 6 Y s 1688 794 m 41 Y s 1685 835 m 7 X s 1688 780 m -89 Y s 1685 691 m 7 X s 1769 543 m -44 X s 1725 540 m 6 Y s 1782 543 m 30 X s
 1812 540 m 6 Y s 1775 550 m 144 Y s 1772 694 m 7 X s 1775 536 m -235 Y s 1772 301 m 7 X s 1833 861 m -21 X s 1812 857 m 4 Y s 1846 861 m 16 X s 1862 857 m 4 Y s 1840 854 m -448 Y s 1836 406 m 7 X s 0.6 0 0 c 1255 771 m -145 X s 1110 768 m 7 Y s 1268
 771 m 80 X s 1348 768 m 7 Y s 1261 778 m s 1258 778 m 7 X s 1261 765 m -1 Y s 1258 764 m 7 X s 1393 844 m -45 X s 1348 841 m 7 Y s 1406 844 m 29 X s 1435 841 m 7 Y s 1399 851 m 1 Y s 1396 852 m 7 X s 1399 838 m -7 Y s 1396 831 m 7 X s 1457 848 m -22
 X s 1435 845 m 6 Y s 1470 848 m 16 X s 1486 845 m 6 Y s 1463 855 m 4 Y s 1460 859 m 7 X s 1463 841 m -22 Y s 1460 819 m 7 X s 1499 836 m -13 X s 1486 833 m 7 Y s 1512 836 m 10 X s 1522 833 m 7 Y s 1506 843 m 14 Y s 1502 857 m 7 X s 1506 830 m -50 Y
 s 1502 780 m 7 X s 1544 812 m -22 X s 1522 809 m 6 Y s 1557 812 m 16 X s 1573 809 m 6 Y s 1550 819 m 25 Y s 1547 844 m 7 X s 1550 805 m -57 Y s 1547 748 m 7 X s 1586 861 m -13 X s 1573 857 m 4 Y s 1599 861 m 10 X s 1609 857 m 4 Y s 1593 854 m -85 Y
 s 1589 769 m 7 X s 1618 861 m -9 X s 1609 857 m 4 Y s 1631 861 m 6 X s 1637 857 m 4 Y s 1624 854 m -129 Y s 1621 725 m 7 X s 1682 861 m -45 X s 1637 857 m 4 Y s 1695 861 m 30 X s 1725 857 m 4 Y s 1688 854 m -63 Y s 1685 791 m 7 X s 1769 861 m -44 X
 s 1725 857 m 4 Y s 1782 861 m 30 X s 1812 857 m 4 Y s 1775 854 m -132 Y s 1772 722 m 7 X s 1833 630 m -21 X s 1812 627 m 6 Y s 1846 630 m 16 X s 1862 627 m 6 Y s 1840 637 m 184 Y s 1836 821 m 7 X s 1840 623 m -497 Y s 1836 126 m 7 X s black 0.6 0 0
 c 1261 771 m 138 73 d 64 4 d 43 -12 d 44 -24 d 43 49 d 182 X 65 -231 d s 1261 771 1399 844 1463 848 1506 836 1550 812 1593 861 1624 861 1688 861 1775 861 1840 630 10 { m25} R black
 gsave  955 924 1015 29 C 1157.92 261.197 t 0 r /Times-Italic findfont 34.9514 sf 0 0 m (ATLAS Simulation Preliminary) show NC gr 
 gsave  955 924 1015 29 C 1157.92 214.614 t 0 r /Times-Italic findfont 34.9514 sf 0 0 m (Hough Transform 2D, scenario 2) show NC gr 
 gsave  955 924 1015 29 C 1157.92 169.695 t 0 r /Times-Italic findfont 34.9514 sf 0 0 m (20,000 single muons, no pile\255up) show NC gr  1 1 1 c 210 139 1636 168 bf black
 gsave  955 924 1015 29 C 1766.82 264.524 t 0 r /Helvetica findfont 26.6297 sf 0 0 m ( < 0.3) show NC gr 
 gsave  955 924 1015 29 C 1751.85 264.524 t 0 r /Symbol findfont 26.6297 sf 0 0 m (h) show NC gr 
 gsave  955 924 1015 29 C 1686.97 264.524 t 0 r /Helvetica findfont 26.6297 sf 0 0 m (0.1 < ) show NC gr  0.35 0.33 0.85 c 1643 272 m 37 X s 1662 272 m20 black
 gsave  955 924 1015 29 C 1766.82 194.65 t 0 r /Helvetica findfont 26.6297 sf 0 0 m ( < 0.9) show NC gr 
 gsave  955 924 1015 29 C 1751.85 194.65 t 0 r /Symbol findfont 26.6297 sf 0 0 m (h) show NC gr 
 gsave  955 924 1015 29 C 1686.97 194.65 t 0 r /Helvetica findfont 26.6297 sf 0 0 m (0.7 < ) show NC gr  0.6 0 0 c 1643 203 m 37 X s 1662 203 m25
 gr  gr showpage
end
%%EOF
